{
  "actions": [
    {
      "name": "postGetServerTimestamp",
      "protocol": "REST",
      "method": "POST",
      "entitypath": "{base_path}/{version}/getServerTimestamp?{query}",
      "requestSchema": "schema.json",
      "responseSchema": "schema.json",
      "timeout": 0,
      "sendEmpty": false,
      "requestDatatype": "JSON",
      "responseDatatype": "JSON",
      "headers": {},
      "responseObjects": [
        {
          "type": "default",
          "key": "",
          "mockFile": "mockdatafiles/postGetServerTimestamp-default.json"
        }
      ]
    },
    {
      "name": "postInvalidateSessions",
      "protocol": "REST",
      "method": "POST",
      "entitypath": "{base_path}/{version}/invalidateSessions?{query}",
      "requestSchema": "schema.json",
      "responseSchema": "schema.json",
      "timeout": 0,
      "sendEmpty": false,
      "requestDatatype": "JSON",
      "responseDatatype": "JSON",
      "headers": {},
      "responseObjects": [
        {
          "type": "default",
          "key": "",
          "mockFile": "mockdatafiles/postInvalidateSessions-default.json"
        }
      ]
    },
    {
      "name": "postLogin",
      "protocol": "REST",
      "method": "POST",
      "entitypath": "{base_path}/{version}/login?{query}",
      "requestSchema": "schema.json",
      "responseSchema": "schema.json",
      "timeout": 0,
      "sendEmpty": false,
      "requestDatatype": "JSON",
      "responseDatatype": "JSON",
      "headers": {},
      "responseObjects": [
        {
          "type": "default",
          "key": "",
          "mockFile": "mockdatafiles/postLogin-default.json"
        }
      ]
    },
    {
      "name": "postLogout",
      "protocol": "REST",
      "method": "POST",
      "entitypath": "{base_path}/{version}/logout?{query}",
      "requestSchema": "schema.json",
      "responseSchema": "schema.json",
      "timeout": 0,
      "sendEmpty": false,
      "requestDatatype": "JSON",
      "responseDatatype": "JSON",
      "headers": {},
      "responseObjects": [
        {
          "type": "default",
          "key": "",
          "mockFile": "mockdatafiles/postLogout-default.json"
        }
      ]
    }
  ]
}