{
  "loginResponse": {
    "result": {
      "metadataServerUrl": "string",
      "passwordExpired": false,
      "sandbox": false,
      "serverUrl": "string",
      "sessionId": "string",
      "upgradeMessage": "string",
      "upgradeURL": "string",
      "userId": "string",
      "userInfo": {
        "accessibilityMode": false,
        "chatterExternal": true,
        "currencySymbol": "string",
        "orgAttachmentFileSizeLimit": 9,
        "orgDefaultCurrencyIsoCode": "string",
        "orgDefaultCurrencyLocale": "string",
        "orgDisallowHtmlAttachments": true,
        "orgHasPersonAccounts": false,
        "organizationId": "string",
        "organizationMultiCurrency": false,
        "organizationName": "string",
        "profileId": "string",
        "roleId": "string",
        "sessionSecondsValid": 3,
        "userDefaultCurrencyIsoCode": "string",
        "userEmail": "string",
        "userFullName": "string",
        "userId": "string",
        "userLanguage": "string",
        "userLocale": "string",
        "userName": "string",
        "userTimeZone": "string",
        "userType": "string",
        "userUiSkin": "string"
      }
    }
  }
}