{
  "upsertResponse": {
    "result": [
      {
        "created": false,
        "errors": [
          {
            "extendedErrorDetails": [
              {
                "extendedErrorCode": "FLOW_STAGE_ORDER_DUPLICATE"
              },
              {
                "extendedErrorCode": "SYSTEM_MODE_NOT_ALLOWED"
              },
              {
                "extendedErrorCode": "CONSTANT_INCLUDES_REFERENCES"
              },
              {
                "extendedErrorCode": "AUTOLAUNCHED_STEP_NOT_SUPPORTED"
              },
              {
                "extendedErrorCode": "SURVEY_RULE_INVALID_RIGHT_OPERAND"
              },
              {
                "extendedErrorCode": "CUSTOMEVENT_PROCESSMETADATAVALUES_MISSING_NAME"
              }
            ],
            "fields": [
              "string",
              "string",
              "string",
              "string",
              "string"
            ],
            "message": "string",
            "statusCode": "PRICE_NOT_FOUND"
          },
          {
            "extendedErrorDetails": [
              {
                "extendedErrorCode": "FLEXIPAGE_COMPONENT_ATTRIBUTE_MISSING_REQUIRED"
              },
              {
                "extendedErrorCode": "FIELDSERVICE_UNSUPPORTED_FIELD_TYPE"
              },
              {
                "extendedErrorCode": "SCREENFIELD_TYPE_NOT_SUPPORTED"
              }
            ],
            "fields": [
              "string",
              "string",
              "string",
              "string",
              "string",
              "string"
            ],
            "message": "string",
            "statusCode": "MAXIMUM_DASHBOARD_COMPONENTS_EXCEEDED"
          },
          {
            "extendedErrorDetails": [
              {
                "extendedErrorCode": "CHOICE_NOT_SUPPORTED_FOR_SCREENFIELDTYPE"
              },
              {
                "extendedErrorCode": "LOOP_ASSIGNNEXTVALUETO_MISSING"
              },
              {
                "extendedErrorCode": "CHOICELOOKUP_DATATYPE_INCOMPATIBLE_WITH_CHOICEFIELD"
              },
              {
                "extendedErrorCode": "WORKFLOW_PROCESS_METADATAVALUES_MISSING_NAME"
              }
            ],
            "fields": [
              "string",
              "string"
            ],
            "message": "string",
            "statusCode": "WRONG_CONTROLLER_TYPE"
          },
          {
            "extendedErrorDetails": [
              {
                "extendedErrorCode": "WORKFLOW_MISSING_PROCESSMETADATAVALUES"
              },
              {
                "extendedErrorCode": "FIELDSERVICE_UNSUPPORTED_FIELD_TYPE"
              },
              {
                "extendedErrorCode": "WAITEVENT_REQUIRED_INPUT_MISSING"
              },
              {
                "extendedErrorCode": "VARIABLE_SCALE_NULL"
              },
              {
                "extendedErrorCode": "PROCESSMETADATAVALUES_NOT_SUPPORTED_FOR_PROCESSTYPE"
              },
              {
                "extendedErrorCode": "VISIBILITY_RULE_NOT_SUPPORTED_FOR_API_VERSION"
              },
              {
                "extendedErrorCode": "SCREEN_PAUSEDTEXT_NOT_SHOWN_WHEN_ALLOWPAUSE_IS_FALSE"
              },
              {
                "extendedErrorCode": "INPUTPARAM_INCOMPATIBLE_WITH_COLLECTION_VARIABLE"
              }
            ],
            "fields": [
              "string",
              "string",
              "string",
              "string",
              "string",
              "string",
              "string",
              "string"
            ],
            "message": "string",
            "statusCode": "INVALID_INET_ADDRESS"
          },
          {
            "extendedErrorDetails": [
              {
                "extendedErrorCode": "SUBFLOW_INPUT_VARIABLE_NOT_FOUND_IN_REFERENCEDFLOW"
              },
              {
                "extendedErrorCode": "SCREENFIELD_INVALID_DATATYPE"
              }
            ],
            "fields": [
              "string",
              "string",
              "string",
              "string",
              "string",
              "string",
              "string",
              "string"
            ],
            "message": "string",
            "statusCode": "INVALID_PACKAGE_LICENSE"
          },
          {
            "extendedErrorDetails": [
              {
                "extendedErrorCode": "PROCESSTYPE_SCREEN_FIELDTYPE_NOT_SUPPORTED"
              },
              {
                "extendedErrorCode": "CHOICE_USED_MULTIPLE_TIMES_IN_SAME_FIELD"
              },
              {
                "extendedErrorCode": "DECISION_DEFAULT_CONNECTOR_MISSING_LABEL"
              },
              {
                "extendedErrorCode": "PARAM_DATATYPE_NOT_SUPPORTED"
              },
              {
                "extendedErrorCode": "SUBFLOW_INPUT_VALUE_INCOMPATIBLE_DATATYPES"
              },
              {
                "extendedErrorCode": "SURVEY_ADVANCED_CONDITION_LOGIC_NOT_SUPPORTED"
              }
            ],
            "fields": [
              "string",
              "string",
              "string",
              "string",
              "string",
              "string",
              "string",
              "string",
              "string"
            ],
            "message": "string",
            "statusCode": "DUPLICATE_DEVELOPER_NAME"
          },
          {
            "extendedErrorDetails": [
              {
                "extendedErrorCode": "SETTING_FIELD_MAKES_OTHER_FIELD_REQUIRED"
              },
              {
                "extendedErrorCode": "AUTOLAUNCHED_SUBFLOW_INCOMPATIBLE_FLOWTYPE"
              },
              {
                "extendedErrorCode": "LOOP_COLLECTION_NOT_FOUND"
              },
              {
                "extendedErrorCode": "ASSIGNMENTITEM_ELEMENT_NOT_SUPPORTED"
              },
              {
                "extendedErrorCode": "SUBFLOW_OUTPUT_INCOMPATIBLE_DATATYPES"
              },
              {
                "extendedErrorCode": "SPECIFIC_FIELD_VALUE_MAKES_OTHER_FIELD_REQUIRED"
              },
              {
                "extendedErrorCode": "SUBFLOW_OUTPUT_VARIABLE_NOT_FOUND_IN_REFERENCEDFLOW"
              },
              {
                "extendedErrorCode": "WAITEVENT_RELATIVEALARM_INVALID_OFFSETUNIT"
              },
              {
                "extendedErrorCode": "ASSIGNMENTITEM_INVALID_OPERATOR"
              }
            ],
            "fields": [
              "string",
              "string",
              "string",
              "string",
              "string",
              "string"
            ],
            "message": "string",
            "statusCode": "CANNOT_RENAME_APEX_REFERENCED_FIELD"
          },
          {
            "extendedErrorDetails": [
              {
                "extendedErrorCode": "FIELDASSIGNMENT_INVALID_REFERENCE"
              },
              {
                "extendedErrorCode": "VALUE_CHAR_LIMIT_EXCEEDED"
              },
              {
                "extendedErrorCode": "FIELD_NOT_FOUND"
              }
            ],
            "fields": [
              "string",
              "string",
              "string",
              "string"
            ],
            "message": "string",
            "statusCode": "TOO_MANY_POSSIBLE_USERS_EXIST"
          },
          {
            "extendedErrorDetails": [
              {
                "extendedErrorCode": "WORKFLOW_MISSING_PROCESSMETADATAVALUES"
              }
            ],
            "fields": [
              "string",
              "string",
              "string",
              "string"
            ],
            "message": "string",
            "statusCode": "CANNOT_RENAME_REFERENCED_OBJECT"
          },
          {
            "extendedErrorDetails": [
              {
                "extendedErrorCode": "SCREENRULE_MISSING_ACTION"
              },
              {
                "extendedErrorCode": "SCREEN_CONTAINS_LIGHTNING_COMPONENT"
              },
              {
                "extendedErrorCode": "LOOP_ASSIGNNEXTVALUETO_MISSING_VARIABLE"
              },
              {
                "extendedErrorCode": "NON_EXPOSED_COMPONENT_IN_FLOW"
              },
              {
                "extendedErrorCode": "TRIGGER_TYPE_ELEMENT_NOT_SUPPORTED"
              },
              {
                "extendedErrorCode": "SCREENFIELD_EXTENSION_IMPLEMENTATION_INVALID"
              }
            ],
            "fields": [
              "string",
              "string",
              "string",
              "string",
              "string",
              "string",
              "string",
              "string",
              "string",
              "string"
            ],
            "message": "string",
            "statusCode": "REQUIRE_CONNECTED_APP_SESSION_SCS"
          }
        ],
        "id": "string",
        "infos": [
          {
            "extendedDetails": [
              {
                "extendedErrorCode": "ACTIONCALL_MISSING_NAME"
              },
              {
                "extendedErrorCode": "OUTPUTPARAM_MISSING_ASSIGNTOREFERENCE"
              },
              {
                "extendedErrorCode": "ELEMENT_INVALID_REFERENCE"
              },
              {
                "extendedErrorCode": "SUBFLOW_INVALID_REFERENCE"
              },
              {
                "extendedErrorCode": "FLOW_INTERVIEW_LIMIT_EXCEEDED"
              },
              {
                "extendedErrorCode": "RECORDFILTER_INVALID_DATATYPE"
              },
              {
                "extendedErrorCode": "ASSIGNMENTITEM_REQUIRED"
              }
            ],
            "message": "string",
            "statusCode": "MAXIMUM_HIERARCHY_LEVELS_REACHED"
          },
          {
            "extendedDetails": [
              {
                "extendedErrorCode": "ELEMENT_CONNECTS_TO_SELF"
              },
              {
                "extendedErrorCode": "ASSIGNMENTITEM_FIELD_INVALID_DATATYPE"
              },
              {
                "extendedErrorCode": "PROCESSTYPE_SCREEN_FIELDTYPE_NOT_SUPPORTED"
              },
              {
                "extendedErrorCode": "SUBFLOW_INPUT_MISSING_NAME"
              },
              {
                "extendedErrorCode": "WAITEVENT_RELATIVEALARM_INVALID_OFFSETUNIT"
              },
              {
                "extendedErrorCode": "SUBFLOW_OUTPUT_MISSING_ASSIGNTOREFERENCE"
              },
              {
                "extendedErrorCode": "APEXCLASS_MISSING_INTERFACE"
              }
            ],
            "message": "string",
            "statusCode": "UNSUPPORTED_SOCIAL_PROVIDER"
          },
          {
            "extendedDetails": [
              {
                "extendedErrorCode": "SCREEN_MISSING_FOOTER_AND_LIGHTNING_COMPONENT"
              },
              {
                "extendedErrorCode": "FLOW_INTERVIEW_HANDLED_ERROR"
              },
              {
                "extendedErrorCode": "TYPE_MAPPING_NOT_SUPPORTED_FOR_API_VERSION"
              }
            ],
            "message": "string",
            "statusCode": "INVALID_STATUS"
          },
          {
            "extendedDetails": [
              {
                "extendedErrorCode": "CHOICE_DATATYPE_INCOMPATIBLE_WITH_CHOICEFIELD"
              },
              {
                "extendedErrorCode": "ASSIGNMENTITEM_RIGHT_DATATYPE_INVALID_FOR_OPERATOR"
              },
              {
                "extendedErrorCode": "SORT_ENCRYPTED_FIELDS_NOT_SUPPORTED"
              },
              {
                "extendedErrorCode": "PROCESSTYPE_NOT_SUPPORTED"
              }
            ],
            "message": "string",
            "statusCode": "INVALID_BATCH_OPERATION"
          }
        ],
        "success": true,
        "warnings": [
          {
            "extendedDetails": [
              {
                "extendedErrorCode": "WORKFLOW_PROCESS_METADATAVALUES_MISSING_NAME"
              },
              {
                "extendedErrorCode": "CONDITION_LOGIC_MISSING"
              },
              {
                "extendedErrorCode": "SORT_ENCRYPTED_FIELDS_NOT_SUPPORTED"
              },
              {
                "extendedErrorCode": "FLOW_INTERVIEW_NAVIGATE"
              },
              {
                "extendedErrorCode": "WAITEVENT_MISSING_CONNECTOR"
              },
              {
                "extendedErrorCode": "TYPE_MAPPING_NOT_SUPPORTED"
              },
              {
                "extendedErrorCode": "SCREENFIELD_TYPE_NOT_SUPPORTED"
              }
            ],
            "message": "string",
            "statusCode": "DUPLICATE_CUSTOM_ENTITY_DEFINITION"
          },
          {
            "extendedDetails": [
              {
                "extendedErrorCode": "PROCESSTYPE_ELEMENT_NOT_SUPPORTED"
              },
              {
                "extendedErrorCode": "SORT_LIMIT_INVALID"
              },
              {
                "extendedErrorCode": "WAITEVENT_DEFAULT_CONNECTOR_MISSING_LABEL"
              },
              {
                "extendedErrorCode": "ACTIONCALL_DUPLICATE_OUTPUT_PARAM"
              },
              {
                "extendedErrorCode": "INCONSISTENT_DYNAMIC_TYPE_MAPPING"
              },
              {
                "extendedErrorCode": "WAITEVENT_RELATIVEALARM_INVALID_OFFSETNUMBER"
              },
              {
                "extendedErrorCode": "WAITEVENT_REQUIRED_INPUT_MISSING"
              },
              {
                "extendedErrorCode": "WAITEVENT_RELATIVEALARM_INVALID_DATETIME_FIELD"
              }
            ],
            "message": "string",
            "statusCode": "INVALID_SUBDOMAIN"
          },
          {
            "extendedDetails": [
              {
                "extendedErrorCode": "SUBFLOW_MASTER_FLOW_TYPE_NOT_AUTOLAUNCHED"
              },
              {
                "extendedErrorCode": "SUBFLOW_MISSING_NAME"
              },
              {
                "extendedErrorCode": "FIELDASSIGNMENT_INVALID_DATATYPE"
              }
            ],
            "message": "string",
            "statusCode": "FIELD_NOT_UPDATABLE"
          },
          {
            "extendedDetails": [
              {
                "extendedErrorCode": "AUTOLAUNCHED_STEP_NOT_SUPPORTED"
              },
              {
                "extendedErrorCode": "DECISION_MISSING_OUTCOME"
              },
              {
                "extendedErrorCode": "ELEMENT_NAME_INVALID"
              },
              {
                "extendedErrorCode": "SURVEY_VARIABLE_ACCESS_INVALID"
              },
              {
                "extendedErrorCode": "DECISION_DEFAULT_CONNECTOR_MISSING_LABEL"
              },
              {
                "extendedErrorCode": "ASSIGNMENTITEM_FIELD_INVALID_DATATYPE"
              },
              {
                "extendedErrorCode": "WAITEVENT_RELATIVEALARM_INVALID_OBJECTTYPE"
              },
              {
                "extendedErrorCode": "ELEMENT_NEVER_USED"
              }
            ],
            "message": "string",
            "statusCode": "DUPLICATE_COMM_NICKNAME"
          }
        ]
      },
      {
        "created": true,
        "errors": [
          {
            "extendedErrorDetails": [
              {
                "extendedErrorCode": "NON_EXPOSED_COMPONENT_IN_FLOW"
              },
              {
                "extendedErrorCode": "ELEMENT_MISSING_REFERENCE"
              },
              {
                "extendedErrorCode": "VISIBILITY_RULE_EXCEEDS_CONDITION_LIMIT"
              },
              {
                "extendedErrorCode": "PAST_SCHEDULE_FLOW_WILL_NOT_RUN"
              }
            ],
            "fields": [
              "string"
            ],
            "message": "string",
            "statusCode": "MAX_LIMIT_EXCEEDED"
          },
          {
            "extendedErrorDetails": [
              {
                "extendedErrorCode": "SOBJECT_ELEMENT_MISMATCHED_OBJECTTYPE"
              },
              {
                "extendedErrorCode": "VISIBILITY_RULE_EXCEEDS_CONDITION_LIMIT"
              },
              {
                "extendedErrorCode": "SUBFLOW_OUTPUT_TARGET_DOES_NOT_EXIST_IN_MASTER_FLOW"
              },
              {
                "extendedErrorCode": "FIELDSERVICE_UNSUPPORTED_FIELD_TYPE"
              },
              {
                "extendedErrorCode": "SUBFLOW_PROCESS_TYPE_INCOMPATIBLE"
              },
              {
                "extendedErrorCode": "SUBFLOW_INPUT_MISMATCHED_OBJECTS"
              },
              {
                "extendedErrorCode": "FLOW_SYSTEM_VARIABLE_NOT_SUPPORTED_FOR_TRIGGERTYPE"
              },
              {
                "extendedErrorCode": "UNEXPECTED_ERROR"
              },
              {
                "extendedErrorCode": "ACTIONCALL_MISSING_REQUIRED_PARAM"
              }
            ],
            "fields": [
              "string",
              "string",
              "string",
              "string",
              "string",
              "string"
            ],
            "message": "string",
            "statusCode": "MATCH_OPERATION_MISSING_OBJECT_TYPE_ERROR"
          },
          {
            "extendedErrorDetails": [
              {
                "extendedErrorCode": "RECORDLOOKUP_IDASSIGNMENT_VARIABLE_NOT_FOUND"
              },
              {
                "extendedErrorCode": "NON_GLOBAL_COMPONENT_IN_EXPORTED_FLOW"
              },
              {
                "extendedErrorCode": "WAITEVENT_RELATIVEALARM_INVALID_OFFSETNUMBER"
              },
              {
                "extendedErrorCode": "SUBFLOW_INPUT_MISMATCHED_COLLECTIONTYPES"
              },
              {
                "extendedErrorCode": "FIELDASSIGNMENT_INVALID_DATATYPE"
              },
              {
                "extendedErrorCode": "SCREENFIELD_USERINPUT_NOT_SUPPORTED_FOR_CHOICETYPE"
              },
              {
                "extendedErrorCode": "LOOP_COLLECTION_NOT_SUPPORTED_FOR_FIELD"
              }
            ],
            "fields": [
              "string",
              "string",
              "string",
              "string",
              "string",
              "string",
              "string",
              "string",
              "string",
              "string"
            ],
            "message": "string",
            "statusCode": "CUSTOM_FIELD_INDEX_LIMIT_EXCEEDED"
          },
          {
            "extendedErrorDetails": [
              {
                "extendedErrorCode": "STAGE_NAME_NOT_FULLY_QUALIFIED"
              },
              {
                "extendedErrorCode": "SCREENFIELD_TYPE_NOT_SUPPORTED"
              },
              {
                "extendedErrorCode": "WORKFLOW_MISSING_PROCESSMETADATAVALUES"
              },
              {
                "extendedErrorCode": "RECORDFILTER_NON_PRIMITIVE"
              }
            ],
            "fields": [
              "string",
              "string",
              "string",
              "string",
              "string",
              "string",
              "string",
              "string"
            ],
            "message": "string",
            "statusCode": "NO_ACCESS_TOKEN"
          },
          {
            "extendedErrorDetails": [
              {
                "extendedErrorCode": "INVALID_SURVEY_VARIABLE_NAME_OR_TYPE"
              },
              {
                "extendedErrorCode": "VARIABLE_SCALE_EXCEEDS_LIMIT"
              },
              {
                "extendedErrorCode": "VARIABLE_SCALE_EXCEEDS_LIMIT"
              },
              {
                "extendedErrorCode": "WAITEVENT_DUPLICATE_INPUT_PARAM"
              },
              {
                "extendedErrorCode": "UNEXPECTED_ERROR"
              }
            ],
            "fields": [
              "string",
              "string"
            ],
            "message": "string",
            "statusCode": "INVALID_PARTNER_NETWORK_STATUS"
          },
          {
            "extendedErrorDetails": [
              {
                "extendedErrorCode": "RECORDFILTER_INVALID_ELEMENT"
              },
              {
                "extendedErrorCode": "FLOW_ELEMENT_SCALE_LESS_THAN_ZERO"
              },
              {
                "extendedErrorCode": "TYPE_MAPPING_NOT_SUPPORTED"
              },
              {
                "extendedErrorCode": "ELEMENT_CONNECTS_TO_SELF"
              },
              {
                "extendedErrorCode": "ELEMENT_MORE_THAN_ONE_FIELD"
              },
              {
                "extendedErrorCode": "ELEMENT_MISSING_LABEL"
              },
              {
                "extendedErrorCode": "AUTOLAUNCHED_CHOICE_NOT_SUPPORTED"
              },
              {
                "extendedErrorCode": "RECORDFILTER_NON_PRIMITIVE"
              },
              {
                "extendedErrorCode": "SCREEN_CONTAINS_LIGHTNING_COMPONENT"
              },
              {
                "extendedErrorCode": "TRIGGER_TYPE_INCOMPATIBLE_WITH_PROCESS_TYPE"
              }
            ],
            "fields": [
              "string",
              "string",
              "string",
              "string",
              "string",
              "string",
              "string",
              "string",
              "string",
              "string"
            ],
            "message": "string",
            "statusCode": "RECORD_IN_USE_BY_WORKFLOW"
          }
        ],
        "id": "string",
        "infos": [
          {
            "extendedDetails": [
              {
                "extendedErrorCode": "WAITEVENT_INVALID_CONDITION_LOGIC"
              }
            ],
            "message": "string",
            "statusCode": "QUICK_ACTION_LIST_NOT_ALLOWED"
          },
          {
            "extendedDetails": [
              {
                "extendedErrorCode": "SUBFLOW_INPUT_INVALID_VALUE"
              },
              {
                "extendedErrorCode": "CONDITION_BUILDER_MISSING_FLOW_VARIABLE"
              },
              {
                "extendedErrorCode": "FLOW_SOBJECT_VARIABLE_NOT_PERSISTED"
              },
              {
                "extendedErrorCode": "ASSIGNMENTITEM_INVALID_REFERENCE"
              },
              {
                "extendedErrorCode": "FLOW_INTERVIEW_LIMIT_EXCEEDED"
              },
              {
                "extendedErrorCode": "APEXCALLOUT_INPUT_DUPLICATE"
              },
              {
                "extendedErrorCode": "TRIGGER_TYPE_ELEMENT_NOT_SUPPORTED"
              },
              {
                "extendedErrorCode": "EX_AUTOLAUNCHED_SUBFLOW_INCOMPATIBLE_FLOWTYPE"
              },
              {
                "extendedErrorCode": "WAITEVENT_MISSING_EVENTTYPE"
              },
              {
                "extendedErrorCode": "FLOW_INTERVIEW_REGEX_VALIDATION"
              }
            ],
            "message": "string",
            "statusCode": "PORTAL_USER_CREATION_RESTRICTED_WITH_ENCRYPTION"
          },
          {
            "extendedDetails": [
              {
                "extendedErrorCode": "FIELD_INVALID_VALUE"
              },
              {
                "extendedErrorCode": "LOOP_ASSIGNNEXTVALUETO_MISMATCHED_DATATYPE"
              },
              {
                "extendedErrorCode": "TYPE_MAPPING_NAME_MISSING"
              },
              {
                "extendedErrorCode": "TRIGGER_TYPE_CONTEXT_OBJECT_NOT_SUPPORTED"
              },
              {
                "extendedErrorCode": "WAITEVENT_RELATIVEALARM_INVALID_OFFSETUNIT"
              },
              {
                "extendedErrorCode": "RECOMMENDATION_STRATEGY_EXCEPTION"
              },
              {
                "extendedErrorCode": "SUBFLOW_OUTPUT_MISSING_ASSIGNTOREFERENCE"
              }
            ],
            "message": "string",
            "statusCode": "INVALID_CURRENCY_ISO"
          },
          {
            "extendedDetails": [
              {
                "extendedErrorCode": "CONDITION_LOGIC_EXCEEDS_LIMIT"
              },
              {
                "extendedErrorCode": "CONDITION_OPERATOR_INCOMPATIBLE"
              },
              {
                "extendedErrorCode": "FLEXIPAGE_COMPONENT_ATTRIBUTE_GENERIC_EXCEPTION"
              }
            ],
            "message": "string",
            "statusCode": "DEPENDENCY_EXISTS"
          },
          {
            "extendedDetails": [
              {
                "extendedErrorCode": "SURVEY_MISSING_QUESTION_OR_SUBFLOW"
              },
              {
                "extendedErrorCode": "SUBFLOW_OUTPUT_TARGET_DOES_NOT_EXIST_IN_MASTER_FLOW"
              },
              {
                "extendedErrorCode": "ASSIGNMENTITEM_INVALID_DATATYPE_IN_ELEMENT"
              },
              {
                "extendedErrorCode": "FLOW_INCLUDES_STEP"
              },
              {
                "extendedErrorCode": "WORKFLOW_OBJECTVARIABLE_AND_OLDOBJECTVARIABLE_REFERENCE_SAME_SOBJECT_VARIABLE"
              },
              {
                "extendedErrorCode": "SCREENRULE_ACTION_MISSING_VALUE"
              }
            ],
            "message": "string",
            "statusCode": "MAXIMUM_HIERARCHY_CHILDREN_REACHED"
          },
          {
            "extendedDetails": [
              {
                "extendedErrorCode": "SCREENRULE_VISIBILITY_NOT_SUPPORTED_IN_ORG"
              },
              {
                "extendedErrorCode": "CHOICE_NOT_SUPPORTED_FOR_SCREENFIELDTYPE"
              },
              {
                "extendedErrorCode": "EXTERNAL_OBJECTS_NOT_SUPPORTED"
              }
            ],
            "message": "string",
            "statusCode": "ENTITY_IS_ARCHIVED"
          },
          {
            "extendedDetails": [
              {
                "extendedErrorCode": "SETTING_FIELD_MAKES_OTHER_FIELD_REQUIRED"
              },
              {
                "extendedErrorCode": "FLOW_INTERVIEW_REGEX_VALIDATION"
              }
            ],
            "message": "string",
            "statusCode": "ORDER_MANAGEMENT_ACTION_NOT_ALLOWED"
          },
          {
            "extendedDetails": [
              {
                "extendedErrorCode": "CONDITION_LOGIC_MISSING"
              },
              {
                "extendedErrorCode": "OUTPUTPARAM_ASSIGNTOREFERENCE_NOTFOUND"
              },
              {
                "extendedErrorCode": "WAITEVENT_TYPE_INVALID_OR_NOT_SUPPORTED"
              },
              {
                "extendedErrorCode": "RECORDLOOKUP_IDASSIGNMENT_VARIABLE_INCOMPATIBLE_DATATYPE"
              }
            ],
            "message": "string",
            "statusCode": "INSUFFICIENT_ACCESS_ON_CROSS_REFERENCE_ENTITY"
          },
          {
            "extendedDetails": [
              {
                "extendedErrorCode": "PROCESSMETADATAVALUES_NOT_SUPPORTED_FOR_PROCESSTYPE"
              },
              {
                "extendedErrorCode": "RECORDLOOKUP_IDASSIGNMENT_VARIABLE_INCOMPATIBLE_DATATYPE"
              },
              {
                "extendedErrorCode": "FLEXIPAGE_COMPONENT_CUSTOM_VALIDATION_EXCEPTION"
              },
              {
                "extendedErrorCode": "ELEMENT_INVALID_CONNECTOR"
              },
              {
                "extendedErrorCode": "OUTPUTPARAM_MISTMATCHED_WITH_NONCOLLECTION_VARIABLE"
              },
              {
                "extendedErrorCode": "ACTIONCALL_NOT_SUPPORTED_FOR_PROCESSTYPE"
              },
              {
                "extendedErrorCode": "WAITEVENT_DUPLICATE_INPUT_PARAM"
              },
              {
                "extendedErrorCode": "VISIBILITY_RULE_NOT_SUPPORTED_FOR_API_VERSION"
              },
              {
                "extendedErrorCode": "APEXCALLOUT_NOT_FOUND"
              }
            ],
            "message": "string",
            "statusCode": "ASSIGNEE_TYPE_REQUIRED"
          },
          {
            "extendedDetails": [
              {
                "extendedErrorCode": "AUTOLAUNCHED_CHOICELOOKUP_NOT_SUPPORTED"
              },
              {
                "extendedErrorCode": "OBJECTTYPE_INVALID"
              },
              {
                "extendedErrorCode": "SUBFLOW_INPUT_MISMATCHED_OBJECTS"
              },
              {
                "extendedErrorCode": "FLOW_INTERVIEW_LIMIT_EXCEEDED"
              },
              {
                "extendedErrorCode": "RECORDFILTER_GEOLOCATION_FIELDS_NOT_SUPPORTED"
              },
              {
                "extendedErrorCode": "CONNECTOR_MISSING_TARGET"
              },
              {
                "extendedErrorCode": "VARIABLE_SCALE_NEGATIVE_INTEGER"
              },
              {
                "extendedErrorCode": "SCREENFIELD_EXTENSION_DUPLICATE_INPUT_PARAM"
              },
              {
                "extendedErrorCode": "SCREEN_CONTAINS_LIGHTNING_COMPONENT"
              },
              {
                "extendedErrorCode": "FIELDSERVICE_UNSUPPORTED_FIELD_TYPE"
              }
            ],
            "message": "string",
            "statusCode": "MATCH_OPERATION_ERROR"
          }
        ],
        "success": true,
        "warnings": [
          {
            "extendedDetails": [
              {
                "extendedErrorCode": "CONDITION_INVALID_LEFTOPERAND"
              },
              {
                "extendedErrorCode": "TRIGGER_TYPE_NOT_ALLOWED_FOR_SUBFLOW"
              },
              {
                "extendedErrorCode": "GLOBAL_VARIABLE_NOT_SUPPORTED_FOR_PROCESSTYPE"
              }
            ],
            "message": "string",
            "statusCode": "CUSTOM_TAB_LIMIT_EXCEEDED"
          },
          {
            "extendedDetails": [
              {
                "extendedErrorCode": "PAST_SCHEDULE_FLOW_WILL_NOT_RUN"
              },
              {
                "extendedErrorCode": "FLOW_INTERVIEW_RANGE_VALIDATION"
              },
              {
                "extendedErrorCode": "ASSIGNMENTITEM_INVALID_COLLECTION"
              },
              {
                "extendedErrorCode": "SUBFLOW_INPUT_ELEMENT_INCOMPATIBLE_DATATYPES"
              },
              {
                "extendedErrorCode": "FORMULA_EXPRESSION_INVALID"
              },
              {
                "extendedErrorCode": "FLEXIPAGE_COMPONENT_ATTRIBUTE_GENERIC_EXCEPTION"
              }
            ],
            "message": "string",
            "statusCode": "PALI_INVALID_ACTION_NAME"
          },
          {
            "extendedDetails": [
              {
                "extendedErrorCode": "SUBFLOW_INPUT_VALUE_INCOMPATIBLE_DATATYPES"
              },
              {
                "extendedErrorCode": "OUTPUTPARAM_INCOMPATIBLE_DATATYPE"
              },
              {
                "extendedErrorCode": "FLOW_NAME_USED_IN_OTHER_CLIENT"
              },
              {
                "extendedErrorCode": "VISIBILITY_RULE_NO_CONDITIONS"
              }
            ],
            "message": "string",
            "statusCode": "ALREADY_IN_PROCESS"
          },
          {
            "extendedDetails": [
              {
                "extendedErrorCode": "ELEMENT_MISSING_LABEL"
              },
              {
                "extendedErrorCode": "CONDITION_REFERENCED_ELEMENT_NOT_FOUND"
              },
              {
                "extendedErrorCode": "SCREENRULE_ACTION_MISSING_VALUE"
              },
              {
                "extendedErrorCode": "WAITEVENT_MISSING_CONNECTOR"
              },
              {
                "extendedErrorCode": "SCREENFIELD_EXTENSION_IMPLEMENTATION_INVALID"
              }
            ],
            "message": "string",
            "statusCode": "MASS_MAIL_LIMIT_EXCEEDED"
          },
          {
            "extendedDetails": [
              {
                "extendedErrorCode": "ACTIONCALL_MISSING_REQUIRED_TYPE"
              },
              {
                "extendedErrorCode": "FLEXIPAGE_COMPONENT_ATTRIBUTE_TOO_LONG"
              }
            ],
            "message": "string",
            "statusCode": "EMAIL_TEMPLATE_MERGEFIELD_ERROR"
          },
          {
            "extendedDetails": [
              {
                "extendedErrorCode": "FLOW_INTERVIEW_INPUT_VALIDATION"
              }
            ],
            "message": "string",
            "statusCode": "INVALID_AUTH_HEADER"
          }
        ]
      },
      {
        "created": true,
        "errors": [
          {
            "extendedErrorDetails": [
              {
                "extendedErrorCode": "RULE_MISSING_CONDITION"
              },
              {
                "extendedErrorCode": "SUBFLOW_INPUT_MISMATCHED_COLLECTIONTYPES"
              },
              {
                "extendedErrorCode": "CONNECTOR_MISSING_TARGET"
              },
              {
                "extendedErrorCode": "SCREENFIELD_EXTENSION_IMPLEMENTATION_INVALID"
              },
              {
                "extendedErrorCode": "PROCESSTYPE_NOT_SUPPORTED"
              },
              {
                "extendedErrorCode": "SCREENFIELD_EXTENSION_REQUIRED_INPUT_MISSING"
              }
            ],
            "fields": [
              "string",
              "string",
              "string",
              "string"
            ],
            "message": "string",
            "statusCode": "TOO_MANY_JOBS"
          },
          {
            "extendedErrorDetails": [
              {
                "extendedErrorCode": "WAITEVENT_RELATIVEALARM_INVALID_OBJECTTYPE"
              },
              {
                "extendedErrorCode": "FORMULA_EXPRESSION_INVALID"
              },
              {
                "extendedErrorCode": "CUSTOMEVENT_OBJECTTYPE_NOT_SUPPORTED"
              },
              {
                "extendedErrorCode": "CUSTOMEVENT_OBJECTTYPE_NOT_SUPPORTED"
              },
              {
                "extendedErrorCode": "SCREENFIELD_EXTENSION_NAME_NOT_SUPPORTED"
              },
              {
                "extendedErrorCode": "AUTOLAUNCHED_WAIT_NOT_SUPPORTED"
              },
              {
                "extendedErrorCode": "OBJECTTYPE_INVALID"
              },
              {
                "extendedErrorCode": "CONDITION_REFERENCED_ELEMENT_NOT_FOUND"
              },
              {
                "extendedErrorCode": "SUBFLOW_INVALID_REFERENCE"
              }
            ],
            "fields": [
              "string",
              "string",
              "string",
              "string",
              "string",
              "string",
              "string",
              "string",
              "string",
              "string"
            ],
            "message": "string",
            "statusCode": "MATCH_RUNTIME_ERROR"
          },
          {
            "extendedErrorDetails": [
              {
                "extendedErrorCode": "VARIABLE_FIELD_REQUIRED_FOR_DATATYPE"
              },
              {
                "extendedErrorCode": "CHOICEFIELD_DEFAULT_CHOICE_NOT_FOUND"
              }
            ],
            "fields": [
              "string",
              "string",
              "string",
              "string",
              "string",
              "string",
              "string",
              "string"
            ],
            "message": "string",
            "statusCode": "EXTERNAL_RESOURCE_FORBIDDEN"
          },
          {
            "extendedErrorDetails": [
              {
                "extendedErrorCode": "ELEMENT_INVALID_REFERENCE"
              },
              {
                "extendedErrorCode": "CHOICELOOKUP_DATATYPE_INCOMPATIBLE_WITH_CHOICEFIELD"
              },
              {
                "extendedErrorCode": "WAITEVENT_TYPE_INVALID_OR_NOT_SUPPORTED"
              },
              {
                "extendedErrorCode": "OBJECTTYPE_INVALID"
              },
              {
                "extendedErrorCode": "SUBFLOW_INPUT_MULTIPLE_ASSIGNMENTS_TO_ONE_VARIABLE"
              },
              {
                "extendedErrorCode": "ELEMENT_MISSING_REFERENCE"
              },
              {
                "extendedErrorCode": "WAITEVENT_OUTPUT_NOT_SUPPORTED_FOR_EVENTTYPE"
              },
              {
                "extendedErrorCode": "SUBFLOW_OUTPUT_VARIABLE_NO_OUTPUT_ACCESS"
              }
            ],
            "fields": [
              "string",
              "string"
            ],
            "message": "string",
            "statusCode": "CANNOT_RENAME_APEX_REFERENCED_OBJECT"
          },
          {
            "extendedErrorDetails": [
              {
                "extendedErrorCode": "CONDITION_BUILDER_MISSING_FLOW_VARIABLE"
              },
              {
                "extendedErrorCode": "CUSTOMEVENT_MISSING_PROCESSMETADATAVALUES"
              },
              {
                "extendedErrorCode": "ACTIONCALL_NOT_FOUND_WITH_NAME_AND_TYPE"
              },
              {
                "extendedErrorCode": "SUBFLOW_INPUT_REFERENCES_FIELD_ON_SOBJECT_VARIABLE"
              },
              {
                "extendedErrorCode": "ASSIGNMENTITEM_INVALID_REFERENCE"
              },
              {
                "extendedErrorCode": "ACTIONCALL_DUPLICATE_OUTPUT_PARAM"
              },
              {
                "extendedErrorCode": "PARAM_DATATYPE_NOT_SUPPORTED"
              }
            ],
            "fields": [
              "string",
              "string"
            ],
            "message": "string",
            "statusCode": "MATCH_PRECONDITION_FAILED"
          }
        ],
        "id": "string",
        "infos": [
          {
            "extendedDetails": [
              {
                "extendedErrorCode": "ASSIGNMENTITEM_RIGHT_DATATYPE_INVALID_FOR_OPERATOR"
              },
              {
                "extendedErrorCode": "SUBFLOW_PROCESSTYPE_NOT_SUPPORTED"
              },
              {
                "extendedErrorCode": "SCREENRULE_MISSING_ACTION"
              },
              {
                "extendedErrorCode": "CONDITION_MISSING_DATATYPE"
              }
            ],
            "message": "string",
            "statusCode": "FILE_SIZE_LIMIT_EXCEEDED"
          },
          {
            "extendedDetails": [
              {
                "extendedErrorCode": "SUBFLOW_MISSING_NAME"
              },
              {
                "extendedErrorCode": "APEXCALLOUT_INVALID"
              }
            ],
            "message": "string",
            "statusCode": "COMMERCIAL_CONTROL_ERROR"
          },
          {
            "extendedDetails": [
              {
                "extendedErrorCode": "SUBFLOW_OUTPUT_VARIABLE_NOT_FOUND_IN_MASTERFLOW"
              },
              {
                "extendedErrorCode": "INPUTPARAM_INCOMPATIBLE_WITH_NONCOLLECTION_VARIABLE"
              },
              {
                "extendedErrorCode": "AUTOLAUNCHED_CHOICELOOKUP_NOT_SUPPORTED"
              },
              {
                "extendedErrorCode": "OBJECTTYPE_INVALID"
              },
              {
                "extendedErrorCode": "SORT_FIELD_MISSING"
              },
              {
                "extendedErrorCode": "WORKFLOW_PROCESSMETADATAVALUES_MORE_THAN_ONE_NAME"
              },
              {
                "extendedErrorCode": "SORT_ENCRYPTED_FIELDS_NOT_SUPPORTED"
              },
              {
                "extendedErrorCode": "APEXCALLOUT_NOT_FOUND"
              },
              {
                "extendedErrorCode": "FLOW_INCLUDES_STEP"
              }
            ],
            "message": "string",
            "statusCode": "INVALID_STATUS"
          },
          {
            "extendedDetails": [
              {
                "extendedErrorCode": "TRIGGER_TYPE_INCOMPATIBLE_WITH_PROCESS_TYPE"
              },
              {
                "extendedErrorCode": "FLEXIPAGE_TEMPLATE_INVALID_SWITCH"
              },
              {
                "extendedErrorCode": "SORT_FIELD_MISSING"
              }
            ],
            "message": "string",
            "statusCode": "TOO_MANY_APEX_REQUESTS"
          },
          {
            "extendedDetails": [
              {
                "extendedErrorCode": "INPUTPARAM_INCOMPATIBLE_DATATYPE"
              },
              {
                "extendedErrorCode": "STAGE_NAME_NOT_FULLY_QUALIFIED"
              },
              {
                "extendedErrorCode": "WORKFLOW_RECURSIVECOUNTVARIABLE_DOESNT_SUPPORT_INPUT"
              },
              {
                "extendedErrorCode": "WAITEVENT_RELATIVEALARM_INVALID_FIELD"
              },
              {
                "extendedErrorCode": "FLEXIPAGE_COMPONENT_MAX_LIMIT_EXCEPTION"
              },
              {
                "extendedErrorCode": "LOOP_ASSIGNNEXTVALUETO_MISMATCHED_OBJECTTYPE"
              },
              {
                "extendedErrorCode": "TYPE_MAPPING_NOT_SUPPORTED_FOR_PROCESS_TYPE"
              },
              {
                "extendedErrorCode": "CONDITION_INVALID_LEFTOPERAND"
              },
              {
                "extendedErrorCode": "WAITEVENT_MISSING_EVENTTYPE"
              },
              {
                "extendedErrorCode": "FLOW_INTERVIEW_SAVE_RESULT"
              }
            ],
            "message": "string",
            "statusCode": "USER_WITH_APEX_SHARES_EXCEPTION"
          }
        ],
        "success": true,
        "warnings": [
          {
            "extendedDetails": [
              {
                "extendedErrorCode": "CUSTOMEVENT_PROCESSMETADATAVALUES_MISSING_NAME"
              },
              {
                "extendedErrorCode": "AUTOLAUNCHED_SCREEN_NOT_SUPPORTED"
              },
              {
                "extendedErrorCode": "FLOW_INTERVIEW_INVALID_START_REQUEST"
              },
              {
                "extendedErrorCode": "CONDITION_RIGHTOPERAND_NULL"
              },
              {
                "extendedErrorCode": "SUBFLOW_INPUT_MISMATCHED_COLLECTIONTYPES"
              },
              {
                "extendedErrorCode": "SUBFLOW_OUTPUT_MISMATCHED_OBJECTS"
              },
              {
                "extendedErrorCode": "SUBFLOW_INPUT_MULTIPLE_ASSIGNMENTS_TO_ONE_VARIABLE"
              },
              {
                "extendedErrorCode": "ELEMENT_NAME_INVALID"
              }
            ],
            "message": "string",
            "statusCode": "TEXT_DATA_OUTSIDE_SUPPORTED_CHARSET"
          },
          {
            "extendedDetails": [
              {
                "extendedErrorCode": "INCONSISTENT_VALUE_FOR_DYNAMIC_VALUE_FIELD"
              },
              {
                "extendedErrorCode": "SURVEY_MULTIPLE_SCREENS_CANNOT_CONNECT_TO_SAME_DECISION"
              },
              {
                "extendedErrorCode": "WAITEVENT_INPUT_NOT_SUPPORTED_FOR_EVENTTYPE"
              },
              {
                "extendedErrorCode": "INPUTPARAM_MISMATCHED_OBJECTTYPE"
              },
              {
                "extendedErrorCode": "CONNECTOR_MISSING_TARGET"
              },
              {
                "extendedErrorCode": "ASSIGNMENTITEM_MODIFIES_NONVARIABLE"
              },
              {
                "extendedErrorCode": "FIELDASSIGNMENT_INVALID_DATATYPE"
              },
              {
                "extendedErrorCode": "SCREENFIELD_USERINPUT_NOT_SUPPORTED_FOR_CHOICETYPE"
              }
            ],
            "message": "string",
            "statusCode": "INVALID_MARKUP"
          },
          {
            "extendedDetails": [
              {
                "extendedErrorCode": "GLOBAL_VARIABLE_NOT_SUPPORTED_FOR_PROCESSTYPE"
              },
              {
                "extendedErrorCode": "PROCESSTYPE_ELEMENT_CONFIG_NOT_SUPPORTED"
              },
              {
                "extendedErrorCode": "FLOW_INTERVIEW_MISSING_VALUE_FOR_REQUIRED_INPUT_FIELD"
              },
              {
                "extendedErrorCode": "ACTIONCALL_DUPLICATE_OUTPUT_PARAM"
              },
              {
                "extendedErrorCode": "APEXCALLOUT_REQUIRED_INPUT_MISSING"
              }
            ],
            "message": "string",
            "statusCode": "PAL_INVALID_FLEXIPAGE_ID"
          },
          {
            "extendedDetails": [
              {
                "extendedErrorCode": "FLEXIPAGE_COMPONENT_ATTRIBUTE_EXPRESSION_EXCEPTION"
              },
              {
                "extendedErrorCode": "CONDITION_INVALID_LEFTOPERAND"
              },
              {
                "extendedErrorCode": "TYPE_MAPPING_NOT_FOUND"
              },
              {
                "extendedErrorCode": "OUTPUTPARAM_MISTMATCHED_WITH_NONCOLLECTION_VARIABLE"
              }
            ],
            "message": "string",
            "statusCode": "EMAIL_EXTERNAL_TRANSPORT_TOO_MANY_REQUESTS_ERROR"
          },
          {
            "extendedDetails": [
              {
                "extendedErrorCode": "SURVEY_MISSING_REQUIRED_VARIABLES"
              }
            ],
            "message": "string",
            "statusCode": "INACTIVE_OWNER_OR_USER"
          },
          {
            "extendedDetails": [
              {
                "extendedErrorCode": "FLEXIPAGE_COMPONENT_ATTRIBUTE_TOO_LONG"
              },
              {
                "extendedErrorCode": "SCREENRULE_ACTION_MISSING_FIELDREFERENCE"
              },
              {
                "extendedErrorCode": "SETTING_FIELD_VALUE_MAKES_OTHER_FIELD_UNSUPPORTED"
              },
              {
                "extendedErrorCode": "CONDITION_OPERATOR_INCOMPATIBLE"
              },
              {
                "extendedErrorCode": "APEXCLASS_MISSING_INTERFACE"
              },
              {
                "extendedErrorCode": "DECISION_DEFAULT_CONNECTOR_MISSING_LABEL"
              },
              {
                "extendedErrorCode": "REFERENCED_ELEMENT_NOT_FOUND"
              },
              {
                "extendedErrorCode": "DATATYPE_INVALID"
              }
            ],
            "message": "string",
            "statusCode": "INSUFFICIENT_ACCESS_ON_CROSS_REFERENCE_ENTITY"
          },
          {
            "extendedDetails": [
              {
                "extendedErrorCode": "LOOP_COLLECTION_NOT_SUPPORTED_FOR_FIELD"
              },
              {
                "extendedErrorCode": "PROCESS_TYPE_INCOMPATIBLE"
              },
              {
                "extendedErrorCode": "WAITEVENT_MISSING_CONNECTOR"
              },
              {
                "extendedErrorCode": "ACTIONCALL_MISSING_REQUIRED_TYPE"
              }
            ],
            "message": "string",
            "statusCode": "MAX_RULE_ENTRIES_EXCEEDED"
          }
        ]
      },
      {
        "created": false,
        "errors": [
          {
            "extendedErrorDetails": [
              {
                "extendedErrorCode": "SURVEY_CHOICE_NOT_REFERENCED_BY_A_QUESTION"
              },
              {
                "extendedErrorCode": "CHOICE_DATATYPE_INCOMPATIBLE_WITH_CHOICEFIELD"
              },
              {
                "extendedErrorCode": "FORMULA_EXPRESSION_INVALID"
              },
              {
                "extendedErrorCode": "ELEMENT_MISSING_REFERENCE"
              },
              {
                "extendedErrorCode": "TRIGGER_TYPE_INCOMPATIBLE_WITH_PROCESS_TYPE"
              },
              {
                "extendedErrorCode": "FLOW_INTERVIEW_START_INTERVIEW"
              },
              {
                "extendedErrorCode": "SCREENFIELD_DEFAULTVALUE_NOT_SUPPORTED"
              }
            ],
            "fields": [
              "string",
              "string",
              "string",
              "string",
              "string",
              "string",
              "string",
              "string"
            ],
            "message": "string",
            "statusCode": "INVALID_NAMESPACE_PREFIX"
          },
          {
            "extendedErrorDetails": [
              {
                "extendedErrorCode": "VARIABLE_SCALE_NEGATIVE_INTEGER"
              }
            ],
            "fields": [
              "string",
              "string",
              "string",
              "string",
              "string",
              "string"
            ],
            "message": "string",
            "statusCode": "INVALID_AUTH_HEADER"
          },
          {
            "extendedErrorDetails": [
              {
                "extendedErrorCode": "ASSIGNMENTITEM_FIELD_INVALID_DATATYPE"
              },
              {
                "extendedErrorCode": "EXTERNAL_OBJECTS_NOT_SUPPORTED"
              },
              {
                "extendedErrorCode": "CHOICELOOKUP_DATATYPE_INCOMPATIBLE_WITH_CHOICEFIELD"
              },
              {
                "extendedErrorCode": "FLEXIPAGE_TEMPLATE_INVALID_SWITCH"
              },
              {
                "extendedErrorCode": "LOOP_ASSIGNNEXTVALUETO_MISMATCHED_DATATYPE"
              },
              {
                "extendedErrorCode": "FLOW_INTERVIEW_REGEX_VALIDATION"
              },
              {
                "extendedErrorCode": "APEXCALLOUT_INPUT_INCOMPATIBLE_DATATYPE"
              }
            ],
            "fields": [
              "string",
              "string",
              "string",
              "string",
              "string",
              "string",
              "string",
              "string"
            ],
            "message": "string",
            "statusCode": "FUNCTIONALITY_NOT_ENABLED"
          },
          {
            "extendedErrorDetails": [
              {
                "extendedErrorCode": "INVALID_SURVEY_VARIABLE_NAME_OR_TYPE"
              },
              {
                "extendedErrorCode": "ASSIGNMENTITEM_INVALID_MERGE_FIELD"
              },
              {
                "extendedErrorCode": "SCREENFIELD_BOOLEAN_ISREQUIRED_IS_FALSE"
              },
              {
                "extendedErrorCode": "WORKFLOW_OBJECTVARIABLE_AND_OLDOBJECTVARIABLE_REFERENCE_SAME_SOBJECT_VARIABLE"
              },
              {
                "extendedErrorCode": "WAITEVENT_DUPLICATE_INPUT_PARAM"
              },
              {
                "extendedErrorCode": "SCREENRULE_ACTION_INVALID_ATTRIBUTE"
              },
              {
                "extendedErrorCode": "RECORDLOOKUP_IDASSIGNMENT_VARIABLE_INCOMPATIBLE_DATATYPE"
              },
              {
                "extendedErrorCode": "WAITEVENT_MISSING"
              },
              {
                "extendedErrorCode": "SUBFLOW_OUTPUT_VARIABLE_NO_OUTPUT_ACCESS"
              },
              {
                "extendedErrorCode": "DECISION_DEFAULT_CONNECTOR_MISSING_LABEL"
              }
            ],
            "fields": [
              "string",
              "string"
            ],
            "message": "string",
            "statusCode": "CLEAN_SERVICE_ERROR"
          },
          {
            "extendedErrorDetails": [
              {
                "extendedErrorCode": "FLOW_INTERVIEW_MISSING_CHOICE_FOR_REQUIRED_CHOICE_FIELD"
              },
              {
                "extendedErrorCode": "PROCESSMETADATAVALUE_NONEXISTENT_ELEMENT"
              },
              {
                "extendedErrorCode": "WORKFLOW_OLDOBJECTVARIABLE_DOESNT_SUPPORT_INPUT"
              },
              {
                "extendedErrorCode": "DATATYPE_INVALID"
              },
              {
                "extendedErrorCode": "RECORDFILTER_MULTIPLE_QUERIES_SAME_FIELD"
              },
              {
                "extendedErrorCode": "WAITEVENT_INPUT_REQUIRES_LITERAL_VALUE"
              },
              {
                "extendedErrorCode": "VARIABLE_FIELD_REQUIRED_FOR_DATATYPE"
              }
            ],
            "fields": [
              "string",
              "string"
            ],
            "message": "string",
            "statusCode": "ENTITY_SAVE_VALIDATION_ERROR"
          },
          {
            "extendedErrorDetails": [
              {
                "extendedErrorCode": "CONDITION_LOGIC_MISSING"
              },
              {
                "extendedErrorCode": "CONNECTOR_MISSING_TARGET"
              },
              {
                "extendedErrorCode": "CONDITION_REFERENCED_ELEMENT_NOT_FOUND"
              },
              {
                "extendedErrorCode": "DECISION_MISSING_OUTCOME"
              },
              {
                "extendedErrorCode": "VISIBILITY_RULE_NOT_SUPPORTED_FOR_API_VERSION"
              },
              {
                "extendedErrorCode": "SUBFLOW_MASTER_FLOW_TYPE_NOT_AUTOLAUNCHED"
              }
            ],
            "fields": [
              "string",
              "string",
              "string",
              "string",
              "string"
            ],
            "message": "string",
            "statusCode": "INVALID_STATUS"
          }
        ],
        "id": "string",
        "infos": [
          {
            "extendedDetails": [
              {
                "extendedErrorCode": "ASSIGNMENTITEM_INVALID_MERGE_FIELD"
              }
            ],
            "message": "string",
            "statusCode": "MAX_FORMULAS_PER_RULE_EXCEEDED"
          },
          {
            "extendedDetails": [
              {
                "extendedErrorCode": "SCREENFIELD_EXTENSION_NAME_INVALID"
              },
              {
                "extendedErrorCode": "SCREENRULE_ACTION_INVALID_ATTRIBUTE_FOR_API_VERSION"
              },
              {
                "extendedErrorCode": "SUBFLOW_OUTPUT_VARIABLE_NOT_FOUND_IN_REFERENCEDFLOW"
              },
              {
                "extendedErrorCode": "OUTPUTPARAM_MISSING_ASSIGNTOREFERENCE"
              },
              {
                "extendedErrorCode": "AUTOLAUNCHED_SUBFLOW_INCOMPATIBLE_FLOWTYPE"
              },
              {
                "extendedErrorCode": "CONDITION_OPERATOR_INCOMPATIBLE"
              },
              {
                "extendedErrorCode": "SUBFLOW_MASTER_FLOW_TYPE_NOT_AUTOLAUNCHED"
              }
            ],
            "message": "string",
            "statusCode": "SOCIAL_POST_INVALID"
          },
          {
            "extendedDetails": [
              {
                "extendedErrorCode": "FLOW_INTERVIEW_INVALID_CHOICE_USER_INPUT"
              },
              {
                "extendedErrorCode": "FLOW_INTERVIEW_START_INTERVIEW"
              },
              {
                "extendedErrorCode": "WORKFLOW_OBJECTTYPE_NOT_FOUND"
              },
              {
                "extendedErrorCode": "SETTING_FIELD_MAKES_OTHER_FIELD_UNSUPPORTED"
              },
              {
                "extendedErrorCode": "ASSIGNMENTITEM_INVALID_MERGE_FIELD"
              },
              {
                "extendedErrorCode": "ASSIGNMENTITEM_FIELD_INVALID_DATATYPE"
              },
              {
                "extendedErrorCode": "SCREENRULE_ACTION_INVALID_VALUE"
              }
            ],
            "message": "string",
            "statusCode": "UNKNOWN_TOKEN_ERROR"
          },
          {
            "extendedDetails": [
              {
                "extendedErrorCode": "ELEMENT_NAME_INVALID"
              },
              {
                "extendedErrorCode": "REFERENCED_ELEMENT_NOT_FOUND"
              },
              {
                "extendedErrorCode": "APEXCLASS_MISSING_INTERFACE"
              }
            ],
            "message": "string",
            "statusCode": "CANNOT_CHANGE_FIELD_TYPE_OF_REFERENCED_FIELD"
          },
          {
            "extendedDetails": [
              {
                "extendedErrorCode": "WAITEVENT_RELATIVEALARM_INVALID_FIELD"
              },
              {
                "extendedErrorCode": "SURVEY_VARIABLE_ACCESS_INVALID"
              }
            ],
            "message": "string",
            "statusCode": "INVALID_QUERY_KEY"
          },
          {
            "extendedDetails": [
              {
                "extendedErrorCode": "FLEXIPAGE_COMPONENT_ATTRIBUTE_GENERIC_EXCEPTION"
              },
              {
                "extendedErrorCode": "PROCESS_TYPE_INCOMPATIBLE"
              },
              {
                "extendedErrorCode": "SCREENRULE_FIELD_NOT_FOUND_ON_SCREEN"
              },
              {
                "extendedErrorCode": "ASSIGNMENTITEM_LEFT_DATATYPE_INVALID_FOR_OPERATOR"
              },
              {
                "extendedErrorCode": "SURVEY_VARIABLE_ACCESS_INVALID"
              }
            ],
            "message": "string",
            "statusCode": "SALESFORCE_INBOX_TRANSPORT_CONNECTION_ERROR"
          },
          {
            "extendedDetails": [
              {
                "extendedErrorCode": "ELEMENT_INVALID_CONNECTOR"
              },
              {
                "extendedErrorCode": "FORMULA_EXPRESSION_INVALID"
              },
              {
                "extendedErrorCode": "SORT_FIELD_MISSING"
              }
            ],
            "message": "string",
            "statusCode": "TOO_MANY_JOBS"
          },
          {
            "extendedDetails": [
              {
                "extendedErrorCode": "FLOW_INTERVIEW_BULK_EXECUTION"
              },
              {
                "extendedErrorCode": "AUTOLAUNCHED_CHOICE_NOT_SUPPORTED"
              }
            ],
            "message": "string",
            "statusCode": "EMPTY_SCONTROL_FILE_NAME"
          },
          {
            "extendedDetails": [
              {
                "extendedErrorCode": "SUBFLOW_INPUT_MISSING_NAME"
              }
            ],
            "message": "string",
            "statusCode": "QA_INVALID_CREATE_FEED_ITEM"
          }
        ],
        "success": false,
        "warnings": [
          {
            "extendedDetails": [
              {
                "extendedErrorCode": "WORKFLOW_OBJECTTYPE_NOT_SUPPORTED"
              },
              {
                "extendedErrorCode": "CUSTOMEVENT_OBJECTTYPE_NOT_SUPPORTED"
              },
              {
                "extendedErrorCode": "WAITEVENT_MISSING_CONNECTOR"
              },
              {
                "extendedErrorCode": "SUBFLOW_OUTPUT_REFERENCES_FIELD_ON_SOBJECT_VARIABLE"
              },
              {
                "extendedErrorCode": "SUBFLOW_PROCESSTYPE_NOT_SUPPORTED"
              },
              {
                "extendedErrorCode": "FLOW_INTERVIEW_START_INTERVIEW"
              }
            ],
            "message": "string",
            "statusCode": "INVALID_ENTITY_FOR_MATCH_OPERATION_ERROR"
          },
          {
            "extendedDetails": [
              {
                "extendedErrorCode": "ELEMENT_NAME_INVALID"
              },
              {
                "extendedErrorCode": "SCREENRULE_NOT_SUPPORTED_IN_ORG"
              },
              {
                "extendedErrorCode": "WORKFLOW_MISSING_PROCESSMETADATAVALUES"
              },
              {
                "extendedErrorCode": "PAST_SCHEDULE_FLOW_WILL_NOT_RUN"
              },
              {
                "extendedErrorCode": "INVALID_FLOW_INTERVIEW"
              }
            ],
            "message": "string",
            "statusCode": "RETRIEVE_EXCHANGE_EVENT_FAILED"
          },
          {
            "extendedDetails": [
              {
                "extendedErrorCode": "PROCESSMETADATAVALUE_NONEXISTENT_ELEMENT"
              },
              {
                "extendedErrorCode": "FLOW_INTERVIEW_RANGE_VALIDATION"
              },
              {
                "extendedErrorCode": "SCREENFIELD_EXTENSION_IMPLEMENTATION_INVALID"
              },
              {
                "extendedErrorCode": "FIELDASSIGNMENT_INVALID_ELEMENT"
              }
            ],
            "message": "string",
            "statusCode": "INVALID_GOOGLE_DOCS_URL"
          },
          {
            "extendedDetails": [
              {
                "extendedErrorCode": "INPUTPARAM_MISMATCHED_OBJECTTYPE"
              },
              {
                "extendedErrorCode": "REFERENCED_ELEMENT_NOT_FOUND"
              },
              {
                "extendedErrorCode": "SCREENRULE_ACTION_INVALID_ATTRIBUTE_FOR_API_VERSION"
              },
              {
                "extendedErrorCode": "PROCESSTYPE_ELEMENT_CONFIG_NOT_SUPPORTED"
              },
              {
                "extendedErrorCode": "FLOW_REFERENCES_APEX_CLASS_NOT_IN_SAME_PACKAGE"
              },
              {
                "extendedErrorCode": "SURVEY_ADVANCED_CONDITION_LOGIC_NOT_SUPPORTED"
              },
              {
                "extendedErrorCode": "SURVEY_VARIABLE_ACCESS_INVALID"
              },
              {
                "extendedErrorCode": "VARIABLE_SCALE_NEGATIVE_INTEGER"
              },
              {
                "extendedErrorCode": "ASSIGNMENTITEM_INVALID_ASSIGNTOREFERENCE"
              }
            ],
            "message": "string",
            "statusCode": "PAL_INVALID_ENTITY_ID"
          }
        ]
      },
      {
        "created": false,
        "errors": [
          {
            "extendedErrorDetails": [
              {
                "extendedErrorCode": "SURVEY_MULTIPLE_SCREENS_CANNOT_CONNECT_TO_SAME_DECISION"
              },
              {
                "extendedErrorCode": "SCREEN_PAUSEDTEXT_NOT_SHOWN_WHEN_ALLOWPAUSE_IS_FALSE"
              },
              {
                "extendedErrorCode": "CUSTOMEVENT_PROCESSMETADATAVALUES_MISSING_NAME"
              },
              {
                "extendedErrorCode": "SCREEN_ALLOWBACK_ALLOWFINISH_BOTH_FALSE"
              },
              {
                "extendedErrorCode": "EXTERNAL_OBJECTS_NOT_SUPPORTED"
              },
              {
                "extendedErrorCode": "TYPE_MAPPING_NAME_MISSING"
              },
              {
                "extendedErrorCode": "FLOW_INTERVIEW_INVALID_START_REQUEST"
              },
              {
                "extendedErrorCode": "CUSTOMEVENTS_NOT_ENABLED"
              },
              {
                "extendedErrorCode": "RECORDLOOKUP_IDASSIGNMENT_VARIABLE_NOT_FOUND"
              }
            ],
            "fields": [
              "string",
              "string",
              "string",
              "string",
              "string",
              "string",
              "string"
            ],
            "message": "string",
            "statusCode": "CANNOT_RENAME_APEX_REFERENCED_FIELD"
          },
          {
            "extendedErrorDetails": [
              {
                "extendedErrorCode": "SORT_LIMIT_INVALID"
              },
              {
                "extendedErrorCode": "FLOW_STAGE_INCLUDES_REFERENCES"
              },
              {
                "extendedErrorCode": "NON_GLOBAL_COMPONENT_IN_EXPORTED_FLOW"
              },
              {
                "extendedErrorCode": "FLOW_INTERVIEW_INVALID_FIELD_VALUE"
              },
              {
                "extendedErrorCode": "SURVEY_RULE_INVALID_RIGHT_OPERAND"
              },
              {
                "extendedErrorCode": "CONDITION_MISSING_OPERATOR"
              },
              {
                "extendedErrorCode": "FIELDSERVICE_UNSUPPORTED_FIELD_TYPE"
              }
            ],
            "fields": [
              "string"
            ],
            "message": "string",
            "statusCode": "CANNOT_UPDATE_CONVERTED_LEAD"
          },
          {
            "extendedErrorDetails": [
              {
                "extendedErrorCode": "FLOW_INCLUDES_STEP"
              },
              {
                "extendedErrorCode": "FLOW_REFERENCES_APEX_CLASS_NOT_IN_SAME_PACKAGE"
              },
              {
                "extendedErrorCode": "ASSIGNMENTITEM_LEFT_DATATYPE_INVALID_FOR_OPERATOR"
              },
              {
                "extendedErrorCode": "SCREENRULE_ACTION_INVALID_ATTRIBUTE_FOR_API_VERSION"
              },
              {
                "extendedErrorCode": "DECISION_DEFAULT_CONNECTOR_MISSING_LABEL"
              },
              {
                "extendedErrorCode": "PROCESSTYPE_ELEMENT_CONFIG_NOT_SUPPORTED"
              }
            ],
            "fields": [
              "string",
              "string",
              "string",
              "string",
              "string"
            ],
            "message": "string",
            "statusCode": "MASS_MAIL_LIMIT_EXCEEDED"
          },
          {
            "extendedErrorDetails": [
              {
                "extendedErrorCode": "ACTIONCALL_MISSING_REQUIRED_TYPE"
              },
              {
                "extendedErrorCode": "STAGE_NAME_NOT_FULLY_QUALIFIED"
              },
              {
                "extendedErrorCode": "APEXCLASS_MISSING_INTERFACE"
              },
              {
                "extendedErrorCode": "RECORDFILTER_NON_PRIMITIVE"
              }
            ],
            "fields": [
              "string",
              "string",
              "string",
              "string",
              "string",
              "string"
            ],
            "message": "string",
            "statusCode": "ENTITY_FAILED_IFLASTMODIFIED_ON_UPDATE"
          },
          {
            "extendedErrorDetails": [
              {
                "extendedErrorCode": "SURVEY_CHOICE_REFERENCED_BY_MULTIPLE_QUESTIONS"
              },
              {
                "extendedErrorCode": "RECORDFILTER_INVALID_OPERATOR"
              },
              {
                "extendedErrorCode": "CHOICEFIELD_DEFAULT_CHOICE_NOT_FOUND"
              },
              {
                "extendedErrorCode": "ACTIONCALL_DUPLICATE_INPUT_PARAM"
              },
              {
                "extendedErrorCode": "ASSIGNMENTITEM_FIELD_INVALID_DATATYPE_WITH_ELEMENT"
              },
              {
                "extendedErrorCode": "SCREENRULE_ATTRIBUTE_NOT_SUPPORTED_FOR_SCREENFIELD"
              },
              {
                "extendedErrorCode": "WAITEVENT_MISSING_EVENTTYPE"
              },
              {
                "extendedErrorCode": "FLOW_ELEMENT_SCALE_LESS_THAN_ZERO"
              }
            ],
            "fields": [
              "string",
              "string"
            ],
            "message": "string",
            "statusCode": "DATAASSESSMENT_CONFIG_ASSESSMENT_IN_PROGRESS_ERROR"
          },
          {
            "extendedErrorDetails": [
              {
                "extendedErrorCode": "FLOW_INTERVIEW_RESUME_INTERVIEW"
              },
              {
                "extendedErrorCode": "SCREENFIELD_BOOLEAN_ISREQUIRED_IS_FALSE"
              }
            ],
            "fields": [
              "string",
              "string",
              "string",
              "string",
              "string",
              "string"
            ],
            "message": "string",
            "statusCode": "INVALID_ASSIGNMENT_RULE"
          }
        ],
        "id": "string",
        "infos": [
          {
            "extendedDetails": [
              {
                "extendedErrorCode": "ASSIGNMENTITEM_MODIFIES_NONVARIABLE"
              },
              {
                "extendedErrorCode": "SURVEY_NESTED_SUBFLOWS"
              },
              {
                "extendedErrorCode": "CHOICE_NOT_SUPPORTED_FOR_SCREENFIELDTYPE"
              },
              {
                "extendedErrorCode": "FORMULA_CMT_LIMIT_EXCEEDED"
              }
            ],
            "message": "string",
            "statusCode": "PA_URI_SYNTAX_EXCEPTION"
          },
          {
            "extendedDetails": [
              {
                "extendedErrorCode": "TYPE_MAPPING_NAME_MISSING"
              },
              {
                "extendedErrorCode": "SUBFLOW_MISSING_NAME"
              },
              {
                "extendedErrorCode": "NON_EXPOSED_COMPONENT_IN_FLOW"
              },
              {
                "extendedErrorCode": "SORT_GEOLOCATION_FIELDS_NOT_SUPPORTED"
              },
              {
                "extendedErrorCode": "DECISION_MISSING_OUTCOME"
              }
            ],
            "message": "string",
            "statusCode": "CUSTOM_TAB_LIMIT_EXCEEDED"
          },
          {
            "extendedDetails": [
              {
                "extendedErrorCode": "FLOW_INTERVIEW_SAVE_RESULT"
              },
              {
                "extendedErrorCode": "SCREEN_PAUSEDTEXT_NOT_SHOWN_WHEN_ALLOWPAUSE_IS_FALSE"
              },
              {
                "extendedErrorCode": "ACTIONCALL_DUPLICATE_INPUT_PARAM"
              },
              {
                "extendedErrorCode": "WORKFLOW_OLDOBJECTVARIABLE_DOESNT_SUPPORT_INPUT"
              },
              {
                "extendedErrorCode": "WAITEVENT_OUTPUT_NOT_SUPPORTED_FOR_EVENTTYPE"
              },
              {
                "extendedErrorCode": "ELEMENT_COORDINATES_INVALID"
              },
              {
                "extendedErrorCode": "WORKFLOW_OBJECTVARIABLE_AND_OLDOBJECTVARIABLE_REFERENCE_SAME_SOBJECT_VARIABLE"
              },
              {
                "extendedErrorCode": "LOOP_COLLECTION_NOT_SUPPORTED_FOR_FIELD"
              }
            ],
            "message": "string",
            "statusCode": "ERROR_IN_MAILER"
          }
        ],
        "success": true,
        "warnings": [
          {
            "extendedDetails": [
              {
                "extendedErrorCode": "WAITEVENT_MISSING_CONNECTOR"
              },
              {
                "extendedErrorCode": "TRIGGER_TYPE_CONTEXT_OBJECT_NOT_SUPPORTED"
              },
              {
                "extendedErrorCode": "VISIBILITY_RULE_NO_CONDITIONS"
              },
              {
                "extendedErrorCode": "SUBFLOW_OUTPUT_MULTIPLE_ASSIGNMENTS_TO_ONE_VARIABLE"
              },
              {
                "extendedErrorCode": "CONDITION_BUILDER_MISSING_FLOW_VARIABLE"
              },
              {
                "extendedErrorCode": "NON_EXPOSED_COMPONENT_IN_FLOW"
              }
            ],
            "message": "string",
            "statusCode": "AURA_COMPILE_ERROR"
          },
          {
            "extendedDetails": [
              {
                "extendedErrorCode": "APEXCALLOUT_MISSING_CLASSNAME"
              }
            ],
            "message": "string",
            "statusCode": "CANNOT_DELETE_MANAGED_OBJECT"
          },
          {
            "extendedDetails": [
              {
                "extendedErrorCode": "VARIABLE_FIELD_REQUIRED_FOR_DATATYPE"
              },
              {
                "extendedErrorCode": "ELEMENT_NEVER_USED"
              },
              {
                "extendedErrorCode": "ELEMENT_INVALID_CONNECTOR"
              },
              {
                "extendedErrorCode": "SCREENFIELD_EXTENSION_IMPLEMENTATION_INVALID"
              },
              {
                "extendedErrorCode": "SUBFLOW_INPUT_MISMATCHED_OBJECTS"
              }
            ],
            "message": "string",
            "statusCode": "NO_AUTH_PROVIDER"
          },
          {
            "extendedDetails": [
              {
                "extendedErrorCode": "ASSIGNMENTITEM_INVALID_COLLECTION"
              },
              {
                "extendedErrorCode": "RECORDFILTER_INVALID_REFERENCE"
              },
              {
                "extendedErrorCode": "CONDITION_BUILDER_MISSING_REQUIRED_PERMISSIONS"
              },
              {
                "extendedErrorCode": "ASSIGNMENTITEM_INVALID_ELEMENTREFERENCE"
              },
              {
                "extendedErrorCode": "PROCESSTYPE_SCREEN_FIELDTYPE_NOT_SUPPORTED"
              },
              {
                "extendedErrorCode": "FLOW_INTERVIEW_INPUT_VALIDATION"
              },
              {
                "extendedErrorCode": "ELEMENT_INVALID_CONNECTOR"
              }
            ],
            "message": "string",
            "statusCode": "INVALID_EXTENSION_ID"
          }
        ]
      },
      {
        "created": true,
        "errors": [
          {
            "extendedErrorDetails": [
              {
                "extendedErrorCode": "SUBFLOW_INPUT_VARIABLE_NOT_FOUND_IN_REFERENCEDFLOW"
              },
              {
                "extendedErrorCode": "WAITEVENT_RELATIVEALARM_INVALID_OFFSETUNIT"
              },
              {
                "extendedErrorCode": "SCREENFIELD_EXTENSION_IMPLEMENTATION_INVALID"
              },
              {
                "extendedErrorCode": "OBJECT_CANNOT_BE_UPDATED"
              },
              {
                "extendedErrorCode": "FLEXIPAGE_COMPONENT_RULE_VALIDATION_EXCEPTION"
              },
              {
                "extendedErrorCode": "SUBFLOW_REFERENCES_MASTERFLOW"
              },
              {
                "extendedErrorCode": "SUBFLOW_PROCESSTYPE_NOT_SUPPORTED"
              },
              {
                "extendedErrorCode": "LOOP_COLLECTION_ELEMENT_NOT_FOUND"
              },
              {
                "extendedErrorCode": "FLOW_INCLUDES_STEP"
              },
              {
                "extendedErrorCode": "GLOBAL_VARIABLE_NOT_SUPPORTED_FOR_PROCESSTYPE"
              }
            ],
            "fields": [
              "string",
              "string",
              "string"
            ],
            "message": "string",
            "statusCode": "INVALID_EMPTY_KEY_OWNER"
          },
          {
            "extendedErrorDetails": [
              {
                "extendedErrorCode": "FLOW_INCLUDES_STEP"
              },
              {
                "extendedErrorCode": "SCREENFIELD_TYPE_NOT_SUPPORTED"
              },
              {
                "extendedErrorCode": "SCREENFIELD_INPUTS_NOT_SUPPORTED"
              },
              {
                "extendedErrorCode": "SURVEY_MISSING_QUESTION_OR_SUBFLOW"
              },
              {
                "extendedErrorCode": "ACTIONCALL_NOT_SUPPORTED_FOR_PROCESSTYPE"
              },
              {
                "extendedErrorCode": "SURVEY_START_ELEMENT_INVALID"
              },
              {
                "extendedErrorCode": "FIELD_NOT_FOUND"
              }
            ],
            "fields": [
              "string",
              "string",
              "string",
              "string",
              "string",
              "string",
              "string",
              "string",
              "string",
              "string"
            ],
            "message": "string",
            "statusCode": "INVALID_BATCH_OPERATION"
          },
          {
            "extendedErrorDetails": [
              {
                "extendedErrorCode": "WAITEVENT_RELATIVEALARM_INVALID_OFFSETNUMBER"
              },
              {
                "extendedErrorCode": "ELEMENT_NEVER_USED"
              },
              {
                "extendedErrorCode": "APEXCALLOUT_INPUT_INCOMPATIBLE_DATATYPE"
              },
              {
                "extendedErrorCode": "ELEMENT_COORDINATES_INVALID"
              },
              {
                "extendedErrorCode": "SUBFLOW_REFERENCES_MASTERFLOW"
              }
            ],
            "fields": [
              "string",
              "string",
              "string",
              "string",
              "string",
              "string",
              "string"
            ],
            "message": "string",
            "statusCode": "JIGSAW_IMPORT_LIMIT_EXCEEDED"
          }
        ],
        "id": "string",
        "infos": [
          {
            "extendedDetails": [
              {
                "extendedErrorCode": "WORKFLOW_PROCESSMETADATAVALUES_MORE_THAN_ONE_NAME"
              },
              {
                "extendedErrorCode": "ELEMENT_COORDINATES_INVALID"
              },
              {
                "extendedErrorCode": "ACTIONCALL_NOT_SUPPORTED_FOR_PROCESSTYPE"
              },
              {
                "extendedErrorCode": "SUBFLOW_PROCESS_TYPE_INCOMPATIBLE"
              },
              {
                "extendedErrorCode": "FLOW_INTERVIEW_NAVIGATE"
              },
              {
                "extendedErrorCode": "SUBFLOW_OUTPUT_VARIABLE_NOT_FOUND_IN_REFERENCEDFLOW"
              },
              {
                "extendedErrorCode": "INPUTPARAM_INCOMPATIBLE_WITH_NONCOLLECTION_VARIABLE"
              }
            ],
            "message": "string",
            "statusCode": "WEBLINK_SIZE_LIMIT_EXCEEDED"
          },
          {
            "extendedDetails": [
              {
                "extendedErrorCode": "SCREEN_MISSING_FOOTER_AND_LIGHTNING_COMPONENT"
              },
              {
                "extendedErrorCode": "INPUTPARAM_MISMATCHED_OBJECTTYPE"
              },
              {
                "extendedErrorCode": "WAITEVENT_INVALID_CONDITION_LOGIC"
              },
              {
                "extendedErrorCode": "SETTING_FIELD_VALUE_MAKES_OTHER_FIELD_UNSUPPORTED"
              },
              {
                "extendedErrorCode": "PROCESSTYPE_ELEMENT_CONFIG_NOT_SUPPORTED"
              },
              {
                "extendedErrorCode": "CONDITION_REFERENCED_ELEMENT_NOT_FOUND"
              },
              {
                "extendedErrorCode": "STAGE_NAME_NOT_FULLY_QUALIFIED"
              }
            ],
            "message": "string",
            "statusCode": "INVALID_GOOGLE_DOCS_URL"
          }
        ],
        "success": true,
        "warnings": [
          {
            "extendedDetails": [
              {
                "extendedErrorCode": "WAITEVENT_RELATIVEALARM_INVALID_FIELD"
              },
              {
                "extendedErrorCode": "SETTING_FIELD_VALUE_MAKES_OTHER_FIELD_UNSUPPORTED"
              },
              {
                "extendedErrorCode": "FIELDASSIGNMENT_FIELD_INCOMPATIBLE_DATATYPE"
              },
              {
                "extendedErrorCode": "SUBFLOW_OUTPUT_VARIABLE_NOT_FOUND_IN_REFERENCEDFLOW"
              },
              {
                "extendedErrorCode": "WAITEVENT_DEFAULT_CONNECTOR_MISSING_LABEL"
              }
            ],
            "message": "string",
            "statusCode": "PLATFORM_EVENT_ENCRYPTION_ERROR"
          },
          {
            "extendedDetails": [
              {
                "extendedErrorCode": "NON_EXPOSED_COMPONENT_IN_FLOW"
              },
              {
                "extendedErrorCode": "FLOW_INTERVIEW_BULK_EXECUTION"
              },
              {
                "extendedErrorCode": "FIELDASSIGNMENT_FIELD_INCOMPATIBLE_DATATYPE"
              },
              {
                "extendedErrorCode": "SCREENFIELD_EXTENSION_REQUIRED_INPUT_MISSING"
              },
              {
                "extendedErrorCode": "SURVEY_MISSING_QUESTION_OR_SUBFLOW"
              },
              {
                "extendedErrorCode": "SCREENFIELD_EXTENSION_NAME_INVALID"
              }
            ],
            "message": "string",
            "statusCode": "ITEM_NOT_FOUND"
          },
          {
            "extendedDetails": [
              {
                "extendedErrorCode": "APEXCLASS_MISSING_INTERFACE"
              },
              {
                "extendedErrorCode": "FLOW_INTERVIEW_RESUME_INTERVIEW"
              },
              {
                "extendedErrorCode": "FIELDASSIGNMENT_INVALID_REFERENCE"
              },
              {
                "extendedErrorCode": "FLOW_NAME_USED_IN_OTHER_CLIENT"
              },
              {
                "extendedErrorCode": "TYPE_MAPPING_NOT_FOUND"
              }
            ],
            "message": "string",
            "statusCode": "MATCH_RUNTIME_ERROR"
          },
          {
            "extendedDetails": [
              {
                "extendedErrorCode": "STAGE_NAME_NOT_FULLY_QUALIFIED"
              },
              {
                "extendedErrorCode": "SCREENRULE_SCREENFIELD_NOT_VISIBLE"
              },
              {
                "extendedErrorCode": "RECORDFILTER_INVALID_ELEMENT"
              },
              {
                "extendedErrorCode": "INCONSISTENT_DYNAMIC_TYPE_MAPPING"
              },
              {
                "extendedErrorCode": "SCREENFIELD_EXTENSION_NAME_MISSING"
              }
            ],
            "message": "string",
            "statusCode": "WRONG_CONTROLLER_TYPE"
          },
          {
            "extendedDetails": [
              {
                "extendedErrorCode": "CHOICE_DATATYPE_INCOMPATIBLE_WITH_CHOICEFIELD"
              },
              {
                "extendedErrorCode": "SCREENFIELD_USERINPUT_NOT_SUPPORTED_FOR_CHOICETYPE"
              },
              {
                "extendedErrorCode": "WORKFLOW_OBJECTVARIABLE_AND_OLDOBJECTVARIABLE_REFERENCE_SAME_SOBJECT_VARIABLE"
              },
              {
                "extendedErrorCode": "RECORDUPDATE_MISSING_FILTERS"
              },
              {
                "extendedErrorCode": "TRIGGER_TYPE_NOT_ALLOWED_FOR_SUBFLOW"
              },
              {
                "extendedErrorCode": "FLOW_INTERVIEW_SET_CHOICE_SELECTED"
              }
            ],
            "message": "string",
            "statusCode": "INVALID_API_INPUT"
          },
          {
            "extendedDetails": [
              {
                "extendedErrorCode": "WAITEVENT_INVALID_CONDITION_LOGIC"
              }
            ],
            "message": "string",
            "statusCode": "WEBLINK_URL_INVALID"
          }
        ]
      },
      {
        "created": true,
        "errors": [
          {
            "extendedErrorDetails": [
              {
                "extendedErrorCode": "OBJECT_CANNOT_BE_DELETED"
              },
              {
                "extendedErrorCode": "SORT_FIELD_NOT_SUPPORTED"
              }
            ],
            "fields": [
              "string",
              "string",
              "string",
              "string",
              "string",
              "string"
            ],
            "message": "string",
            "statusCode": "MATCH_OPERATION_ERROR"
          },
          {
            "extendedErrorDetails": [
              {
                "extendedErrorCode": "CONDITION_BUILDER_MISSING_FLOW_VARIABLE"
              },
              {
                "extendedErrorCode": "INVALID_SURVEY_VARIABLE_NAME_OR_TYPE"
              },
              {
                "extendedErrorCode": "SORT_FIELD_MISSING"
              },
              {
                "extendedErrorCode": "FLOW_INTERVIEW_TYPE_CONVERSION"
              }
            ],
            "fields": [
              "string",
              "string",
              "string",
              "string",
              "string"
            ],
            "message": "string",
            "statusCode": "CLEAN_SERVICE_ERROR"
          },
          {
            "extendedErrorDetails": [
              {
                "extendedErrorCode": "CONDITION_LOGIC_INVALID"
              },
              {
                "extendedErrorCode": "ASSIGNMENTITEM_LEFT_DATATYPE_INVALID_FOR_OPERATOR"
              },
              {
                "extendedErrorCode": "CONDITION_MISSING_DATATYPE"
              },
              {
                "extendedErrorCode": "WAITEVENT_MISSING_CONNECTOR"
              },
              {
                "extendedErrorCode": "SORT_ENCRYPTED_FIELDS_NOT_SUPPORTED"
              },
              {
                "extendedErrorCode": "BOTH_START_NODE_AND_REFERENCE_FOUND"
              },
              {
                "extendedErrorCode": "FLOW_STAGE_ORDER_OUT_OF_RANGE"
              },
              {
                "extendedErrorCode": "UNEXPECTED_ERROR"
              },
              {
                "extendedErrorCode": "PROCESSTYPE_COMPONENTTYPE_NOT_SUPPORTED"
              },
              {
                "extendedErrorCode": "LOOP_COLLECTION_NOT_SUPPORTED_FOR_FIELD"
              }
            ],
            "fields": [
              "string",
              "string"
            ],
            "message": "string",
            "statusCode": "CANNOT_DELETE_GLOBAL_ACTION_LIST"
          },
          {
            "extendedErrorDetails": [
              {
                "extendedErrorCode": "RECORDFILTER_GEOLOCATION_FIELDS_NOT_SUPPORTED"
              },
              {
                "extendedErrorCode": "SUBFLOW_OUTPUT_MISSING_NAME"
              },
              {
                "extendedErrorCode": "APEXCALLOUT_NOT_FOUND"
              },
              {
                "extendedErrorCode": "ASSIGNMENTITEM_ELEMENT_MISSING_DATATYPE"
              },
              {
                "extendedErrorCode": "OUTPUTPARAM_MISMATCHED_OBJECTTYPE"
              },
              {
                "extendedErrorCode": "APEXCALLOUT_REQUIRED_INPUT_MISSING"
              },
              {
                "extendedErrorCode": "WAITEVENT_DUPLICATE_INPUT_PARAM"
              },
              {
                "extendedErrorCode": "FLOW_INTERVIEW_LIMIT_EXCEEDED"
              }
            ],
            "fields": [
              "string",
              "string",
              "string"
            ],
            "message": "string",
            "statusCode": "COMMERCIAL_CONTROL_ERROR"
          },
          {
            "extendedErrorDetails": [
              {
                "extendedErrorCode": "LOOP_ASSIGNNEXTVALUETO_MISMATCHED_OBJECTTYPE"
              },
              {
                "extendedErrorCode": "SUBFLOW_OUTPUT_MISSING_ASSIGNTOREFERENCE"
              },
              {
                "extendedErrorCode": "ACTIONCALL_MISSING_REQUIRED_TYPE"
              },
              {
                "extendedErrorCode": "FLOW_INTERVIEW_MISSING_VALUE_FOR_REQUIRED_INPUT_FIELD"
              },
              {
                "extendedErrorCode": "AUTOLAUNCHED_CHOICE_NOT_SUPPORTED"
              },
              {
                "extendedErrorCode": "SUBFLOW_OUTPUT_MISSING_ASSIGNTOREFERENCE"
              },
              {
                "extendedErrorCode": "ELEMENT_NAME_INVALID"
              },
              {
                "extendedErrorCode": "WAITEVENT_RELATIVEALARM_INVALID_FIELD"
              },
              {
                "extendedErrorCode": "PROCESSTYPE_ELEMENT_CONFIG_NOT_SUPPORTED"
              }
            ],
            "fields": [
              "string",
              "string",
              "string",
              "string",
              "string",
              "string",
              "string",
              "string"
            ],
            "message": "string",
            "statusCode": "SUBDOMAIN_IN_USE"
          },
          {
            "extendedErrorDetails": [
              {
                "extendedErrorCode": "LOOP_ASSIGNNEXTVALUETO_MISMATCHED_DATATYPE"
              },
              {
                "extendedErrorCode": "VARIABLE_FIELD_NOT_SUPPORTED_FOR_DATATYPE"
              },
              {
                "extendedErrorCode": "RECORDLOOKUP_IDASSIGNMENT_VARIABLE_INCOMPATIBLE_DATATYPE"
              },
              {
                "extendedErrorCode": "INCONSISTENT_DYNAMIC_TYPE_MAPPING"
              },
              {
                "extendedErrorCode": "CHOICE_NOT_SUPPORTED_FOR_SCREENFIELDTYPE"
              },
              {
                "extendedErrorCode": "OBJECT_CANNOT_BE_CREATED"
              }
            ],
            "fields": [
              "string",
              "string",
              "string",
              "string",
              "string",
              "string"
            ],
            "message": "string",
            "statusCode": "COLLISION_DETECTED"
          },
          {
            "extendedErrorDetails": [
              {
                "extendedErrorCode": "APEXCALLOUT_MISSING_CLASSNAME"
              },
              {
                "extendedErrorCode": "TRIGGER_TYPE_CONTEXT_OBJECT_NOT_SUPPORTED"
              },
              {
                "extendedErrorCode": "APEXCALLOUT_NOT_FOUND"
              },
              {
                "extendedErrorCode": "SCREENFIELD_EXTENSION_NAME_NOT_SUPPORTED"
              },
              {
                "extendedErrorCode": "CHOICE_NOT_SUPPORTED_FOR_SCREENFIELDTYPE"
              },
              {
                "extendedErrorCode": "WAITEVENT_MISSING_EVENTTYPE"
              },
              {
                "extendedErrorCode": "SUBFLOW_INPUT_VARIABLE_NOT_FOUND_IN_MASTERFLOW"
              },
              {
                "extendedErrorCode": "VARIABLE_SCALE_NULL"
              }
            ],
            "fields": [
              "string",
              "string",
              "string"
            ],
            "message": "string",
            "statusCode": "INVALID_SCS_INBOUND_USER"
          },
          {
            "extendedErrorDetails": [
              {
                "extendedErrorCode": "ELEMENT_MISSING_REFERENCE"
              },
              {
                "extendedErrorCode": "SUBFLOW_DIFFERENT_RUNMODE"
              },
              {
                "extendedErrorCode": "WAITEVENT_OBJECT_NOT_SUPPORTED_FOR_EVENTTYPE"
              },
              {
                "extendedErrorCode": "WAITEVENT_REQUIRED_INPUT_MISSING"
              },
              {
                "extendedErrorCode": "SETTING_FIELD_MAKES_OTHER_FIELD_REQUIRED"
              },
              {
                "extendedErrorCode": "FIELDASSIGNMENT_PICKLISTFIELD_INCOMPATIBLE_DATATYPE"
              },
              {
                "extendedErrorCode": "FLOW_INTERVIEW_NAVIGATE"
              },
              {
                "extendedErrorCode": "SCREENRULE_ACTION_MISSING_ATTRIBUTE"
              },
              {
                "extendedErrorCode": "ELEMENT_MISSING_LABEL"
              },
              {
                "extendedErrorCode": "FLOW_INTERVIEW_INTERACTION_NOT_FOUND"
              }
            ],
            "fields": [
              "string",
              "string",
              "string",
              "string",
              "string",
              "string",
              "string",
              "string"
            ],
            "message": "string",
            "statusCode": "XCLEAN_DJ_MATCH_RETRIABLE_ERROR"
          }
        ],
        "id": "string",
        "infos": [
          {
            "extendedDetails": [
              {
                "extendedErrorCode": "ASSIGNMENTITEM_ELEMENT_NOT_SUPPORTED"
              },
              {
                "extendedErrorCode": "OBJECT_ENCRYPTED_FIELDS_NOT_SUPPORTED"
              },
              {
                "extendedErrorCode": "ELEMENT_CONNECTS_TO_SELF"
              },
              {
                "extendedErrorCode": "CONDITION_REFERENCED_ELEMENT_NOT_FOUND"
              },
              {
                "extendedErrorCode": "RECORDFILTER_NON_PRIMITIVE"
              },
              {
                "extendedErrorCode": "ACTIONCALL_MISSING_REQUIRED_PARAM"
              },
              {
                "extendedErrorCode": "FIELDASSIGNMENT_INVALID_REFERENCE"
              }
            ],
            "message": "string",
            "statusCode": "EMAIL_TEMPLATE_MERGEFIELD_ACCESS_ERROR"
          },
          {
            "extendedDetails": [
              {
                "extendedErrorCode": "SCREENFIELD_EXTENSION_DUPLICATE_OUTPUT_PARAM"
              },
              {
                "extendedErrorCode": "PAST_SCHEDULE_FLOW_WILL_NOT_RUN"
              },
              {
                "extendedErrorCode": "CONDITION_MISSING_OPERATOR"
              },
              {
                "extendedErrorCode": "SCREENFIELD_BOOLEAN_ISREQUIRED_IS_FALSE"
              }
            ],
            "message": "string",
            "statusCode": "CANNOT_MODIFY_MANAGED_OBJECT"
          },
          {
            "extendedDetails": [
              {
                "extendedErrorCode": "SUBFLOW_PROCESS_TYPE_INCOMPATIBLE"
              },
              {
                "extendedErrorCode": "CONDITION_INVALID_LEFTOPERAND"
              },
              {
                "extendedErrorCode": "GLOBAL_VARIABLE_NOT_SUPPORTED_FOR_PROCESSTYPE"
              }
            ],
            "message": "string",
            "statusCode": "CANNOT_RENAME_REFERENCED_FIELD"
          }
        ],
        "success": false,
        "warnings": [
          {
            "extendedDetails": [
              {
                "extendedErrorCode": "ASSIGNMENTITEM_LEFT_DATATYPE_INVALID_FOR_OPERATOR"
              },
              {
                "extendedErrorCode": "FLOW_REFERENCES_APEX_CLASS_NOT_IN_SAME_PACKAGE"
              },
              {
                "extendedErrorCode": "OUTPUTPARAM_ASSIGNTOREFERENCE_NOTFOUND"
              },
              {
                "extendedErrorCode": "CHOICEFIELD_MISSING_CHOICE"
              },
              {
                "extendedErrorCode": "ELEMENT_NAME_INVALID"
              },
              {
                "extendedErrorCode": "WAITEVENT_OUTPUT_NOT_SUPPORTED_FOR_EVENTTYPE"
              }
            ],
            "message": "string",
            "statusCode": "ORCHESTRATION_INVALID"
          },
          {
            "extendedDetails": [
              {
                "extendedErrorCode": "ACTIONCALL_MISSING_REQUIRED_PARAM"
              },
              {
                "extendedErrorCode": "SCREENRULE_ACTION_INVALID_VALUE"
              },
              {
                "extendedErrorCode": "FLOW_INTERVIEW_RANGE_VALIDATION"
              },
              {
                "extendedErrorCode": "FLEXIPAGE_COMPONENT_ATTRIBUTE_TOO_LONG"
              },
              {
                "extendedErrorCode": "WORKFLOW_MISSING_PROCESSMETADATAVALUES"
              }
            ],
            "message": "string",
            "statusCode": "NO_REFRESH_TOKEN"
          },
          {
            "extendedDetails": [
              {
                "extendedErrorCode": "APEXCALLOUT_OUTPUT_NOT_FOUND"
              },
              {
                "extendedErrorCode": "SCREENRULE_ACTION_MISSING_VALUE"
              },
              {
                "extendedErrorCode": "ELEMENT_MISSING_CONNECTOR"
              }
            ],
            "message": "string",
            "statusCode": "PA_VISIBLE_ACTIONS_FILTER_ORDERING_EXCEPTION"
          },
          {
            "extendedDetails": [
              {
                "extendedErrorCode": "FLOW_INTERVIEW_INPUT_VALIDATION"
              },
              {
                "extendedErrorCode": "SUBFLOW_NO_ACTIVE_VERSION"
              },
              {
                "extendedErrorCode": "CUSTOMEVENTS_NOT_ENABLED"
              },
              {
                "extendedErrorCode": "RECORDFILTER_MISSING_DATATYPE"
              },
              {
                "extendedErrorCode": "SCREENRULE_ACTION_MISSING_VALUE"
              },
              {
                "extendedErrorCode": "SCREENFIELD_INVALID_DATATYPE"
              }
            ],
            "message": "string",
            "statusCode": "PA_AXIS_FAULT"
          },
          {
            "extendedDetails": [
              {
                "extendedErrorCode": "SURVEY_ADVANCED_CONDITION_LOGIC_NOT_SUPPORTED"
              },
              {
                "extendedErrorCode": "ELEMENT_MORE_THAN_ONE_FIELD"
              },
              {
                "extendedErrorCode": "INVALID_SURVEY_VARIABLE_NAME_OR_TYPE"
              },
              {
                "extendedErrorCode": "ASSIGNMENTITEM_INVALID_OPERATOR"
              },
              {
                "extendedErrorCode": "SURVEY_NESTED_SUBFLOWS"
              }
            ],
            "message": "string",
            "statusCode": "NO_SUCH_USER_EXISTS"
          },
          {
            "extendedDetails": [
              {
                "extendedErrorCode": "SORT_FIELD_NOT_SUPPORTED"
              },
              {
                "extendedErrorCode": "OUTPUTPARAM_MISMATCHED_WITH_COLLECTION_VARIABLE"
              },
              {
                "extendedErrorCode": "NON_GLOBAL_COMPONENT_IN_EXPORTED_FLOW"
              }
            ],
            "message": "string",
            "statusCode": "FIELD_MAPPING_ERROR"
          }
        ]
      }
    ]
  }
}