{
  "searchResponse": {
    "result": {
      "queryId": "string",
      "searchRecords": [
        {
          "record": {
            "fieldsToNull": [
              "string",
              "string",
              "string",
              "string",
              "string",
              "string",
              "string"
            ],
            "Id": "string"
          },
          "searchRecordMetadata": {
            "searchPromoted": false,
            "spellCorrected": false
          },
          "snippet": {
            "text": "string",
            "wholeFields": [
              {
                "name": "string",
                "value": "string"
              },
              {
                "name": "string",
                "value": "string"
              },
              {
                "name": "string",
                "value": "string"
              },
              {
                "name": "string",
                "value": "string"
              },
              {
                "name": "string",
                "value": "string"
              },
              {
                "name": "string",
                "value": "string"
              },
              {
                "name": "string",
                "value": "string"
              },
              {
                "name": "string",
                "value": "string"
              },
              {
                "name": "string",
                "value": "string"
              },
              {
                "name": "string",
                "value": "string"
              }
            ]
          }
        },
        {
          "record": {
            "fieldsToNull": [
              "string",
              "string",
              "string"
            ],
            "Id": "string"
          },
          "searchRecordMetadata": {
            "searchPromoted": false,
            "spellCorrected": false
          },
          "snippet": {
            "text": "string",
            "wholeFields": [
              {
                "name": "string",
                "value": "string"
              },
              {
                "name": "string",
                "value": "string"
              },
              {
                "name": "string",
                "value": "string"
              },
              {
                "name": "string",
                "value": "string"
              }
            ]
          }
        },
        {
          "record": {
            "fieldsToNull": [
              "string",
              "string",
              "string",
              "string",
              "string",
              "string",
              "string",
              "string"
            ],
            "Id": "string"
          },
          "searchRecordMetadata": {
            "searchPromoted": false,
            "spellCorrected": false
          },
          "snippet": {
            "text": "string",
            "wholeFields": [
              {
                "name": "string",
                "value": "string"
              },
              {
                "name": "string",
                "value": "string"
              },
              {
                "name": "string",
                "value": "string"
              },
              {
                "name": "string",
                "value": "string"
              },
              {
                "name": "string",
                "value": "string"
              }
            ]
          }
        },
        {
          "record": {
            "fieldsToNull": [
              "string",
              "string",
              "string",
              "string",
              "string",
              "string"
            ],
            "Id": "string"
          },
          "searchRecordMetadata": {
            "searchPromoted": false,
            "spellCorrected": true
          },
          "snippet": {
            "text": "string",
            "wholeFields": [
              {
                "name": "string",
                "value": "string"
              },
              {
                "name": "string",
                "value": "string"
              },
              {
                "name": "string",
                "value": "string"
              },
              {
                "name": "string",
                "value": "string"
              },
              {
                "name": "string",
                "value": "string"
              },
              {
                "name": "string",
                "value": "string"
              },
              {
                "name": "string",
                "value": "string"
              },
              {
                "name": "string",
                "value": "string"
              },
              {
                "name": "string",
                "value": "string"
              }
            ]
          }
        },
        {
          "record": {
            "fieldsToNull": [
              "string",
              "string",
              "string",
              "string",
              "string",
              "string",
              "string",
              "string",
              "string"
            ],
            "Id": "string"
          },
          "searchRecordMetadata": {
            "searchPromoted": false,
            "spellCorrected": false
          },
          "snippet": {
            "text": "string",
            "wholeFields": [
              {
                "name": "string",
                "value": "string"
              },
              {
                "name": "string",
                "value": "string"
              },
              {
                "name": "string",
                "value": "string"
              },
              {
                "name": "string",
                "value": "string"
              },
              {
                "name": "string",
                "value": "string"
              },
              {
                "name": "string",
                "value": "string"
              },
              {
                "name": "string",
                "value": "string"
              },
              {
                "name": "string",
                "value": "string"
              }
            ]
          }
        },
        {
          "record": {
            "fieldsToNull": [
              "string"
            ],
            "Id": "string"
          },
          "searchRecordMetadata": {
            "searchPromoted": false,
            "spellCorrected": true
          },
          "snippet": {
            "text": "string",
            "wholeFields": [
              {
                "name": "string",
                "value": "string"
              },
              {
                "name": "string",
                "value": "string"
              },
              {
                "name": "string",
                "value": "string"
              },
              {
                "name": "string",
                "value": "string"
              },
              {
                "name": "string",
                "value": "string"
              },
              {
                "name": "string",
                "value": "string"
              },
              {
                "name": "string",
                "value": "string"
              },
              {
                "name": "string",
                "value": "string"
              },
              {
                "name": "string",
                "value": "string"
              },
              {
                "name": "string",
                "value": "string"
              }
            ]
          }
        },
        {
          "record": {
            "fieldsToNull": [
              "string"
            ],
            "Id": "string"
          },
          "searchRecordMetadata": {
            "searchPromoted": true,
            "spellCorrected": true
          },
          "snippet": {
            "text": "string",
            "wholeFields": [
              {
                "name": "string",
                "value": "string"
              },
              {
                "name": "string",
                "value": "string"
              },
              {
                "name": "string",
                "value": "string"
              },
              {
                "name": "string",
                "value": "string"
              },
              {
                "name": "string",
                "value": "string"
              },
              {
                "name": "string",
                "value": "string"
              },
              {
                "name": "string",
                "value": "string"
              }
            ]
          }
        },
        {
          "record": {
            "fieldsToNull": [
              "string",
              "string",
              "string",
              "string",
              "string",
              "string",
              "string",
              "string",
              "string",
              "string"
            ],
            "Id": "string"
          },
          "searchRecordMetadata": {
            "searchPromoted": false,
            "spellCorrected": false
          },
          "snippet": {
            "text": "string",
            "wholeFields": [
              {
                "name": "string",
                "value": "string"
              },
              {
                "name": "string",
                "value": "string"
              },
              {
                "name": "string",
                "value": "string"
              },
              {
                "name": "string",
                "value": "string"
              },
              {
                "name": "string",
                "value": "string"
              },
              {
                "name": "string",
                "value": "string"
              },
              {
                "name": "string",
                "value": "string"
              },
              {
                "name": "string",
                "value": "string"
              }
            ]
          }
        }
      ],
      "searchResultsMetadata": {
        "entityLabelMetadata": [
          {
            "entityFieldLabels": [
              {
                "name": "string",
                "value": "string"
              },
              {
                "name": "string",
                "value": "string"
              },
              {
                "name": "string",
                "value": "string"
              }
            ],
            "entityName": "string"
          },
          {
            "entityFieldLabels": [
              {
                "name": "string",
                "value": "string"
              },
              {
                "name": "string",
                "value": "string"
              }
            ],
            "entityName": "string"
          },
          {
            "entityFieldLabels": [
              {
                "name": "string",
                "value": "string"
              },
              {
                "name": "string",
                "value": "string"
              }
            ],
            "entityName": "string"
          },
          {
            "entityFieldLabels": [
              {
                "name": "string",
                "value": "string"
              },
              {
                "name": "string",
                "value": "string"
              },
              {
                "name": "string",
                "value": "string"
              }
            ],
            "entityName": "string"
          }
        ],
        "entityMetadata": [
          {
            "entityName": "string",
            "errorMetadata": {
              "errorCode": "string",
              "message": "string"
            },
            "fieldMetadata": [
              {
                "label": "string",
                "name": "string",
                "type": "string"
              },
              {
                "label": "string",
                "name": "string",
                "type": "string"
              },
              {
                "label": "string",
                "name": "string",
                "type": "string"
              },
              {
                "label": "string",
                "name": "string",
                "type": "string"
              },
              {
                "label": "string",
                "name": "string",
                "type": "string"
              },
              {
                "label": "string",
                "name": "string",
                "type": "string"
              },
              {
                "label": "string",
                "name": "string",
                "type": "string"
              },
              {
                "label": "string",
                "name": "string",
                "type": "string"
              }
            ],
            "intentQueryMetadata": {
              "intentQuery": false,
              "message": "string"
            },
            "searchPromotionMetadata": {
              "promotedResultCount": 3
            },
            "spellCorrectionMetadata": {
              "correctedQuery": "string",
              "hasNonCorrectedResults": false
            }
          },
          {
            "entityName": "string",
            "errorMetadata": {
              "errorCode": "string",
              "message": "string"
            },
            "fieldMetadata": [
              {
                "label": "string",
                "name": "string",
                "type": "string"
              },
              {
                "label": "string",
                "name": "string",
                "type": "string"
              },
              {
                "label": "string",
                "name": "string",
                "type": "string"
              },
              {
                "label": "string",
                "name": "string",
                "type": "string"
              },
              {
                "label": "string",
                "name": "string",
                "type": "string"
              },
              {
                "label": "string",
                "name": "string",
                "type": "string"
              },
              {
                "label": "string",
                "name": "string",
                "type": "string"
              }
            ],
            "intentQueryMetadata": {
              "intentQuery": false,
              "message": "string"
            },
            "searchPromotionMetadata": {
              "promotedResultCount": 10
            },
            "spellCorrectionMetadata": {
              "correctedQuery": "string",
              "hasNonCorrectedResults": false
            }
          },
          {
            "entityName": "string",
            "errorMetadata": {
              "errorCode": "string",
              "message": "string"
            },
            "fieldMetadata": [
              {
                "label": "string",
                "name": "string",
                "type": "string"
              },
              {
                "label": "string",
                "name": "string",
                "type": "string"
              },
              {
                "label": "string",
                "name": "string",
                "type": "string"
              }
            ],
            "intentQueryMetadata": {
              "intentQuery": true,
              "message": "string"
            },
            "searchPromotionMetadata": {
              "promotedResultCount": 7
            },
            "spellCorrectionMetadata": {
              "correctedQuery": "string",
              "hasNonCorrectedResults": true
            }
          },
          {
            "entityName": "string",
            "errorMetadata": {
              "errorCode": "string",
              "message": "string"
            },
            "fieldMetadata": [
              {
                "label": "string",
                "name": "string",
                "type": "string"
              },
              {
                "label": "string",
                "name": "string",
                "type": "string"
              },
              {
                "label": "string",
                "name": "string",
                "type": "string"
              }
            ],
            "intentQueryMetadata": {
              "intentQuery": true,
              "message": "string"
            },
            "searchPromotionMetadata": {
              "promotedResultCount": 10
            },
            "spellCorrectionMetadata": {
              "correctedQuery": "string",
              "hasNonCorrectedResults": false
            }
          },
          {
            "entityName": "string",
            "errorMetadata": {
              "errorCode": "string",
              "message": "string"
            },
            "fieldMetadata": [
              {
                "label": "string",
                "name": "string",
                "type": "string"
              },
              {
                "label": "string",
                "name": "string",
                "type": "string"
              },
              {
                "label": "string",
                "name": "string",
                "type": "string"
              },
              {
                "label": "string",
                "name": "string",
                "type": "string"
              },
              {
                "label": "string",
                "name": "string",
                "type": "string"
              }
            ],
            "intentQueryMetadata": {
              "intentQuery": true,
              "message": "string"
            },
            "searchPromotionMetadata": {
              "promotedResultCount": 10
            },
            "spellCorrectionMetadata": {
              "correctedQuery": "string",
              "hasNonCorrectedResults": true
            }
          }
        ]
      }
    }
  }
}