{
  "describeWorkitemActionsResponse": {
    "result": [
      {
        "actions": [
          {
            "commentsRequired": true,
            "label": "string",
            "name": "string",
            "nextOwnerRequired": true,
            "versionRequired": false
          },
          {
            "commentsRequired": false,
            "label": "string",
            "name": "string",
            "nextOwnerRequired": true,
            "versionRequired": false
          },
          {
            "commentsRequired": true,
            "label": "string",
            "name": "string",
            "nextOwnerRequired": false,
            "versionRequired": true
          },
          {
            "commentsRequired": false,
            "label": "string",
            "name": "string",
            "nextOwnerRequired": true,
            "versionRequired": true
          },
          {
            "commentsRequired": false,
            "label": "string",
            "name": "string",
            "nextOwnerRequired": true,
            "versionRequired": true
          },
          {
            "commentsRequired": true,
            "label": "string",
            "name": "string",
            "nextOwnerRequired": false,
            "versionRequired": false
          },
          {
            "commentsRequired": true,
            "label": "string",
            "name": "string",
            "nextOwnerRequired": false,
            "versionRequired": true
          },
          {
            "commentsRequired": false,
            "label": "string",
            "name": "string",
            "nextOwnerRequired": false,
            "versionRequired": false
          },
          {
            "commentsRequired": true,
            "label": "string",
            "name": "string",
            "nextOwnerRequired": true,
            "versionRequired": false
          }
        ],
        "errors": [
          {
            "extendedErrorDetails": [
              {
                "extendedErrorCode": "FLOW_STAGE_INCLUDES_REFERENCES"
              },
              {
                "extendedErrorCode": "WAITEVENT_MISSING"
              }
            ],
            "fields": [
              "string",
              "string",
              "string",
              "string",
              "string",
              "string",
              "string",
              "string",
              "string"
            ],
            "message": "string",
            "statusCode": "PROCESSING_HALTED"
          },
          {
            "extendedErrorDetails": [
              {
                "extendedErrorCode": "SORT_ENCRYPTED_FIELDS_NOT_SUPPORTED"
              },
              {
                "extendedErrorCode": "WAITEVENT_REQUIRED_INPUT_MISSING"
              },
              {
                "extendedErrorCode": "WAITEVENT_INVALID_CONDITION_LOGIC"
              },
              {
                "extendedErrorCode": "SURVEY_NESTED_SUBFLOWS"
              },
              {
                "extendedErrorCode": "ASSIGNMENTITEM_MODIFIES_NONVARIABLE"
              },
              {
                "extendedErrorCode": "ASSIGNMENTITEM_REQUIRED"
              },
              {
                "extendedErrorCode": "FLOW_SCHEDULE_INFORMATION_INCOMPLETE"
              }
            ],
            "fields": [
              "string",
              "string",
              "string",
              "string",
              "string",
              "string",
              "string"
            ],
            "message": "string",
            "statusCode": "INVALID_OPERATION"
          },
          {
            "extendedErrorDetails": [
              {
                "extendedErrorCode": "AUTOLAUNCHED_SCREEN_NOT_SUPPORTED"
              },
              {
                "extendedErrorCode": "SCREEN_MULTISELECTFIELD_DOESNT_SUPPORT_CHOICE_WITH_USERINPUT"
              },
              {
                "extendedErrorCode": "CONDITION_BUILDER_UNSUPPORTED_FLOW_VARIABLE"
              },
              {
                "extendedErrorCode": "LOOP_COLLECTION_NOT_SUPPORTED_FOR_FIELD"
              },
              {
                "extendedErrorCode": "SUBFLOW_OUTPUT_MISMATCHED_OBJECTS"
              }
            ],
            "fields": [
              "string"
            ],
            "message": "string",
            "statusCode": "CLONE_NOT_SUPPORTED"
          },
          {
            "extendedErrorDetails": [
              {
                "extendedErrorCode": "PROCESSMETADATAVALUES_NOT_SUPPORTED_FOR_PROCESSTYPE"
              },
              {
                "extendedErrorCode": "RECORDLOOKUP_IDASSIGNMENT_VARIABLE_NOT_FOUND"
              },
              {
                "extendedErrorCode": "TYPE_MAPPING_NOT_FOUND"
              },
              {
                "extendedErrorCode": "FLOW_INTERVIEW_RESUME_INTERVIEW"
              },
              {
                "extendedErrorCode": "WAITEVENT_INPUT_NOT_SUPPORTED_FOR_EVENTTYPE"
              },
              {
                "extendedErrorCode": "VARIABLE_SCALE_NEGATIVE_INTEGER"
              }
            ],
            "fields": [
              "string",
              "string",
              "string",
              "string",
              "string",
              "string",
              "string",
              "string"
            ],
            "message": "string",
            "statusCode": "EXTERNAL_RESOURCE_FORBIDDEN"
          },
          {
            "extendedErrorDetails": [
              {
                "extendedErrorCode": "SETTING_FIELD_MAKES_OTHER_FIELD_REQUIRED"
              },
              {
                "extendedErrorCode": "ASSIGNMENTITEM_FIELD_INVALID_DATATYPE_WITH_ELEMENT"
              },
              {
                "extendedErrorCode": "CONDITION_INVALID_LEFTOPERAND"
              },
              {
                "extendedErrorCode": "REFERENCED_ELEMENT_NOT_FOUND"
              },
              {
                "extendedErrorCode": "VALUE_CHAR_LIMIT_EXCEEDED"
              },
              {
                "extendedErrorCode": "FLOW_ELEMENT_SCALE_LESS_THAN_ZERO"
              },
              {
                "extendedErrorCode": "APEXCALLOUT_MISSING_CLASSNAME"
              },
              {
                "extendedErrorCode": "RECORDFILTER_GEOLOCATION_FIELDS_NOT_SUPPORTED"
              }
            ],
            "fields": [
              "string",
              "string",
              "string",
              "string",
              "string",
              "string"
            ],
            "message": "string",
            "statusCode": "UNSAFE_HTML_CONTENT"
          },
          {
            "extendedErrorDetails": [
              {
                "extendedErrorCode": "SUBFLOW_NO_ACTIVE_VERSION"
              },
              {
                "extendedErrorCode": "CUSTOMEVENTS_NOT_ENABLED"
              },
              {
                "extendedErrorCode": "SCREEN_ALLOWBACK_ALLOWFINISH_BOTH_FALSE"
              },
              {
                "extendedErrorCode": "FLOW_INTERVIEW_SET_CHOICE_SELECTED"
              },
              {
                "extendedErrorCode": "LOOP_COLLECTION_NOT_SUPPORTED_FOR_FIELD"
              },
              {
                "extendedErrorCode": "SETTING_FIELD_MAKES_OTHER_FIELD_REQUIRED"
              },
              {
                "extendedErrorCode": "FLOW_INTERVIEW_HANDLED_ERROR"
              },
              {
                "extendedErrorCode": "SUBFLOW_OUTPUT_MISSING_NAME"
              },
              {
                "extendedErrorCode": "SUBFLOW_OUTPUT_REFERENCES_FIELD_ON_SOBJECT_VARIABLE"
              },
              {
                "extendedErrorCode": "PROCESSTYPE_SCREEN_FIELDTYPE_NOT_SUPPORTED"
              }
            ],
            "fields": [
              "string",
              "string",
              "string"
            ],
            "message": "string",
            "statusCode": "SELF_REFERENCE_FROM_FLOW"
          },
          {
            "extendedErrorDetails": [
              {
                "extendedErrorCode": "SCREENFIELD_OUTPUTS_NOT_SUPPORTED"
              },
              {
                "extendedErrorCode": "APEX_CLASS_VARIABLE_NOT_FOUND"
              },
              {
                "extendedErrorCode": "SURVEY_ADVANCED_CONDITION_LOGIC_NOT_SUPPORTED"
              },
              {
                "extendedErrorCode": "SCREENFIELD_EXTENSION_NAME_INVALID"
              },
              {
                "extendedErrorCode": "ACTIONCALL_NOT_FOUND_WITH_NAME_AND_TYPE"
              },
              {
                "extendedErrorCode": "CONNECTOR_MISSING_TARGET"
              },
              {
                "extendedErrorCode": "SORT_GEOLOCATION_FIELDS_NOT_SUPPORTED"
              }
            ],
            "fields": [
              "string",
              "string",
              "string",
              "string",
              "string",
              "string",
              "string",
              "string",
              "string"
            ],
            "message": "string",
            "statusCode": "DELETE_NOT_ALLOWED"
          }
        ],
        "success": false,
        "targetObjectId": "string",
        "workitemId": "string"
      },
      {
        "actions": [
          {
            "commentsRequired": true,
            "label": "string",
            "name": "string",
            "nextOwnerRequired": true,
            "versionRequired": false
          },
          {
            "commentsRequired": true,
            "label": "string",
            "name": "string",
            "nextOwnerRequired": true,
            "versionRequired": true
          }
        ],
        "errors": [
          {
            "extendedErrorDetails": [
              {
                "extendedErrorCode": "INCONSISTENT_DYNAMIC_TYPE_MAPPING"
              },
              {
                "extendedErrorCode": "SCREENFIELD_EXTENSION_NAME_INVALID"
              }
            ],
            "fields": [
              "string",
              "string",
              "string",
              "string",
              "string",
              "string",
              "string",
              "string",
              "string"
            ],
            "message": "string",
            "statusCode": "MAX_ACTIONS_PER_RULE_EXCEEDED"
          },
          {
            "extendedErrorDetails": [
              {
                "extendedErrorCode": "FLEXIPAGE_COMPONENT_MAX_LIMIT_EXCEPTION"
              },
              {
                "extendedErrorCode": "SURVEY_CHOICE_NOT_REFERENCED_BY_A_QUESTION"
              },
              {
                "extendedErrorCode": "WAITEVENT_OBJECT_NOT_SUPPORTED_FOR_EVENTTYPE"
              },
              {
                "extendedErrorCode": "OBJECT_CANNOT_BE_DELETED"
              }
            ],
            "fields": [
              "string",
              "string"
            ],
            "message": "string",
            "statusCode": "CANNOT_ENABLE_IP_RESTRICT_REQUESTS"
          },
          {
            "extendedErrorDetails": [
              {
                "extendedErrorCode": "PARAM_DATATYPE_NOT_SUPPORTED"
              },
              {
                "extendedErrorCode": "PROCESSTYPE_ELEMENT_NOT_SUPPORTED"
              },
              {
                "extendedErrorCode": "CONDITION_LOGIC_INVALID"
              },
              {
                "extendedErrorCode": "OUTPUTPARAM_MISMATCHED_OBJECTTYPE"
              },
              {
                "extendedErrorCode": "SCREENFIELD_EXTENSION_NAME_MISSING"
              },
              {
                "extendedErrorCode": "LOOP_ASSIGNNEXTVALUETO_MISSING_VARIABLE"
              },
              {
                "extendedErrorCode": "CUSTOMEVENT_OBJECTTYPE_NOT_SUPPORTED"
              },
              {
                "extendedErrorCode": "SUBFLOW_INPUT_VARIABLE_NO_INPUT_ACCESS"
              },
              {
                "extendedErrorCode": "ASSIGNMENTITEM_LEFT_DATATYPE_INVALID_FOR_OPERATOR"
              }
            ],
            "fields": [
              "string",
              "string"
            ],
            "message": "string",
            "statusCode": "QUERY_TIMEOUT"
          },
          {
            "extendedErrorDetails": [
              {
                "extendedErrorCode": "SYSTEM_MODE_NOT_ALLOWED"
              }
            ],
            "fields": [
              "string",
              "string",
              "string",
              "string",
              "string",
              "string",
              "string"
            ],
            "message": "string",
            "statusCode": "DUPLICATE_MASTER_LABEL"
          },
          {
            "extendedErrorDetails": [
              {
                "extendedErrorCode": "SCREENFIELD_EXTENSION_DUPLICATE_OUTPUT_PARAM"
              },
              {
                "extendedErrorCode": "LOOP_MISSING_COLLECTION"
              },
              {
                "extendedErrorCode": "FLEXIPAGE_COMPONENT_RULE_VALIDATION_EXCEPTION"
              },
              {
                "extendedErrorCode": "CHOICE_NOT_SUPPORTED_FOR_SCREENFIELDTYPE"
              },
              {
                "extendedErrorCode": "WAITEVENT_RELATIVEALARM_INVALID_DATETIME_FIELD"
              },
              {
                "extendedErrorCode": "WAITEVENT_RELATIVEALARM_INVALID_DATETIME_FIELD"
              },
              {
                "extendedErrorCode": "LOOP_ASSIGNNEXTVALUETO_REFERENCE_NOT_FOUND"
              }
            ],
            "fields": [
              "string",
              "string",
              "string",
              "string"
            ],
            "message": "string",
            "statusCode": "TOO_MANY_JOBS"
          },
          {
            "extendedErrorDetails": [
              {
                "extendedErrorCode": "WAITEVENT_RELATIVEALARM_INVALID_OBJECTTYPE"
              }
            ],
            "fields": [
              "string",
              "string"
            ],
            "message": "string",
            "statusCode": "MATCH_OPERATION_MISSING_RULE_ERROR"
          },
          {
            "extendedErrorDetails": [
              {
                "extendedErrorCode": "SURVEY_ADVANCED_CONDITION_LOGIC_NOT_SUPPORTED"
              },
              {
                "extendedErrorCode": "OUTPUTPARAM_ASSIGNTOREFERENCE_NOTFOUND"
              },
              {
                "extendedErrorCode": "CONDITION_BUILDER_MISSING_REQUIRED_PERMISSIONS"
              },
              {
                "extendedErrorCode": "ELEMENT_MISSING_REFERENCE"
              },
              {
                "extendedErrorCode": "FLOW_INVALID_NAME"
              }
            ],
            "fields": [
              "string",
              "string",
              "string",
              "string",
              "string",
              "string"
            ],
            "message": "string",
            "statusCode": "CUSTOM_APEX_ERROR"
          },
          {
            "extendedErrorDetails": [
              {
                "extendedErrorCode": "RECORDFILTER_NON_PRIMITIVE"
              },
              {
                "extendedErrorCode": "SUBFLOW_MASTER_FLOW_TYPE_NOT_AUTOLAUNCHED"
              },
              {
                "extendedErrorCode": "FIELDASSIGNMENT_FIELD_INCOMPATIBLE_DATATYPE"
              },
              {
                "extendedErrorCode": "SUBFLOW_PROCESS_TYPE_INCOMPATIBLE"
              },
              {
                "extendedErrorCode": "RECORDFILTER_INVALID_ELEMENT"
              },
              {
                "extendedErrorCode": "ASSIGNMENTITEM_FIELD_INVALID_DATATYPE"
              },
              {
                "extendedErrorCode": "SCREENFIELD_TYPE_NOT_SUPPORTED"
              },
              {
                "extendedErrorCode": "ELEMENT_SCALE_SMALLER_THAN_DEFAULTVALUE"
              },
              {
                "extendedErrorCode": "RECORDFILTER_INVALID_OPERATOR"
              }
            ],
            "fields": [
              "string",
              "string",
              "string"
            ],
            "message": "string",
            "statusCode": "ENTITY_SAVE_VALIDATION_ERROR"
          }
        ],
        "success": true,
        "targetObjectId": "string",
        "workitemId": "string"
      },
      {
        "actions": [
          {
            "commentsRequired": false,
            "label": "string",
            "name": "string",
            "nextOwnerRequired": true,
            "versionRequired": false
          },
          {
            "commentsRequired": false,
            "label": "string",
            "name": "string",
            "nextOwnerRequired": false,
            "versionRequired": true
          },
          {
            "commentsRequired": false,
            "label": "string",
            "name": "string",
            "nextOwnerRequired": false,
            "versionRequired": true
          }
        ],
        "errors": [
          {
            "extendedErrorDetails": [
              {
                "extendedErrorCode": "DATA_TYPE_NOT_SUPPORTED_FOR_PROCESSTYPE"
              },
              {
                "extendedErrorCode": "FLOW_STAGE_ORDER_OUT_OF_RANGE"
              },
              {
                "extendedErrorCode": "ELEMENT_MISSING_CONNECTOR"
              },
              {
                "extendedErrorCode": "WORKFLOW_PROCESS_METADATAVALUES_MISSING_NAME"
              },
              {
                "extendedErrorCode": "WAITEVENT_MISSING_EVENTTYPE"
              },
              {
                "extendedErrorCode": "LOOP_ASSIGNNEXTVALUETO_MISSING"
              },
              {
                "extendedErrorCode": "VISIBILITY_RULE_NOT_SUPPORTED_FOR_PROCESSTYPE"
              }
            ],
            "fields": [
              "string",
              "string"
            ],
            "message": "string",
            "statusCode": "ENTITY_SAVE_ERROR"
          },
          {
            "extendedErrorDetails": [
              {
                "extendedErrorCode": "FLOW_INTERVIEW_INVALID_START_REQUEST"
              },
              {
                "extendedErrorCode": "ELEMENT_NEVER_USED"
              },
              {
                "extendedErrorCode": "SCREENRULE_ATTRIBUTE_NOT_SUPPORTED_FOR_SCREENFIELD"
              },
              {
                "extendedErrorCode": "SOBJECT_ELEMENT_INCOMPATIBLE_DATATYPE"
              },
              {
                "extendedErrorCode": "FLEXIPAGE_PICKLIST_INVALID_VALUE_EXCEPTION"
              },
              {
                "extendedErrorCode": "WAITEVENT_DEFAULT_CONNECTOR_MISSING_LABEL"
              },
              {
                "extendedErrorCode": "FLOW_INVALID_NAME"
              }
            ],
            "fields": [
              "string",
              "string",
              "string",
              "string",
              "string"
            ],
            "message": "string",
            "statusCode": "CANNOT_CHANGE_FIELD_TYPE_OF_APEX_REFERENCED_FIELD"
          },
          {
            "extendedErrorDetails": [
              {
                "extendedErrorCode": "SCREENFIELD_OUTPUTS_NOT_SUPPORTED"
              },
              {
                "extendedErrorCode": "DECISION_MISSING_OUTCOME"
              },
              {
                "extendedErrorCode": "SCREEN_MISSING_LABEL"
              },
              {
                "extendedErrorCode": "SCREENFIELD_EXTENSION_DUPLICATE_INPUT_PARAM"
              },
              {
                "extendedErrorCode": "SCREENFIELD_EXTENSION_REQUIRED_INPUT_MISSING"
              },
              {
                "extendedErrorCode": "SCREEN_MULTISELECTFIELD_DOESNT_SUPPORT_CHOICE_WITH_USERINPUT"
              }
            ],
            "fields": [
              "string",
              "string",
              "string",
              "string"
            ],
            "message": "string",
            "statusCode": "SALESFORCE_INBOX_TRANSPORT_UNKNOWN_ERROR"
          },
          {
            "extendedErrorDetails": [
              {
                "extendedErrorCode": "FLOW_INTERVIEW_NAVIGATE"
              }
            ],
            "fields": [
              "string",
              "string"
            ],
            "message": "string",
            "statusCode": "INVALID_SITE_FILE_IMPORTED_EXCEPTION"
          },
          {
            "extendedErrorDetails": [
              {
                "extendedErrorCode": "FLOW_INTERVIEW_REGEX_VALIDATION"
              },
              {
                "extendedErrorCode": "VALUE_CHAR_LIMIT_EXCEEDED"
              }
            ],
            "fields": [
              "string",
              "string",
              "string",
              "string",
              "string"
            ],
            "message": "string",
            "statusCode": "INVALID_EXTENSION_ID"
          },
          {
            "extendedErrorDetails": [
              {
                "extendedErrorCode": "APEXCLASS_MISSING_INTERFACE"
              },
              {
                "extendedErrorCode": "PAST_SCHEDULE_FLOW_WILL_NOT_RUN"
              },
              {
                "extendedErrorCode": "SURVEY_MULTIPLE_SCREENS_CANNOT_CONNECT_TO_SAME_DECISION"
              },
              {
                "extendedErrorCode": "SCREENFIELD_TYPE_NOT_SUPPORTED"
              },
              {
                "extendedErrorCode": "SYSTEM_MODE_NOT_ALLOWED"
              },
              {
                "extendedErrorCode": "INPUTPARAM_INCOMPATIBLE_DATATYPE"
              },
              {
                "extendedErrorCode": "FLEXIPAGE_COMPONENT_ATTRIBUTE_MISSING_REQUIRED"
              },
              {
                "extendedErrorCode": "CONDITION_BUILDER_UNSUPPORTED_FLOW_VARIABLE"
              }
            ],
            "fields": [
              "string",
              "string",
              "string",
              "string",
              "string",
              "string",
              "string",
              "string",
              "string",
              "string"
            ],
            "message": "string",
            "statusCode": "FIELD_INTEGRITY_EXCEPTION"
          },
          {
            "extendedErrorDetails": [
              {
                "extendedErrorCode": "RECORDFILTER_ENCRYPTED_FIELDS_NOT_SUPPORTED"
              },
              {
                "extendedErrorCode": "FLEXIPAGE_COMPONENT_ATTRIBUTE_EXPRESSION_EXCEPTION"
              },
              {
                "extendedErrorCode": "WAITEVENT_RELATIVEALARM_INVALID_FIELD"
              },
              {
                "extendedErrorCode": "SCREENFIELD_EXTENSION_OUTPUT_ATTRIBUTE_INVALID"
              },
              {
                "extendedErrorCode": "SCREENFIELD_EXTENSION_NAME_MISSING"
              }
            ],
            "fields": [
              "string",
              "string",
              "string"
            ],
            "message": "string",
            "statusCode": "CANNOT_DISABLE_LAST_ADMIN"
          }
        ],
        "success": true,
        "targetObjectId": "string",
        "workitemId": "string"
      },
      {
        "actions": [
          {
            "commentsRequired": true,
            "label": "string",
            "name": "string",
            "nextOwnerRequired": false,
            "versionRequired": false
          },
          {
            "commentsRequired": false,
            "label": "string",
            "name": "string",
            "nextOwnerRequired": false,
            "versionRequired": false
          },
          {
            "commentsRequired": false,
            "label": "string",
            "name": "string",
            "nextOwnerRequired": true,
            "versionRequired": true
          },
          {
            "commentsRequired": false,
            "label": "string",
            "name": "string",
            "nextOwnerRequired": true,
            "versionRequired": false
          },
          {
            "commentsRequired": false,
            "label": "string",
            "name": "string",
            "nextOwnerRequired": false,
            "versionRequired": false
          },
          {
            "commentsRequired": false,
            "label": "string",
            "name": "string",
            "nextOwnerRequired": true,
            "versionRequired": false
          },
          {
            "commentsRequired": false,
            "label": "string",
            "name": "string",
            "nextOwnerRequired": true,
            "versionRequired": false
          },
          {
            "commentsRequired": true,
            "label": "string",
            "name": "string",
            "nextOwnerRequired": false,
            "versionRequired": false
          },
          {
            "commentsRequired": true,
            "label": "string",
            "name": "string",
            "nextOwnerRequired": false,
            "versionRequired": true
          },
          {
            "commentsRequired": true,
            "label": "string",
            "name": "string",
            "nextOwnerRequired": true,
            "versionRequired": false
          }
        ],
        "errors": [
          {
            "extendedErrorDetails": [
              {
                "extendedErrorCode": "AUTOLAUNCHED_CHOICE_NOT_SUPPORTED"
              },
              {
                "extendedErrorCode": "ASSIGNMENTITEM_INVALID_ASSIGNTOREFERENCE"
              },
              {
                "extendedErrorCode": "LOOP_COLLECTION_ELEMENT_NOT_FOUND"
              },
              {
                "extendedErrorCode": "ACTIONCALL_DUPLICATE_INPUT_PARAM"
              },
              {
                "extendedErrorCode": "CONDITION_LOGIC_EXCEEDS_LIMIT"
              },
              {
                "extendedErrorCode": "SUBFLOW_INPUT_MISMATCHED_COLLECTIONTYPES"
              }
            ],
            "fields": [
              "string",
              "string",
              "string",
              "string",
              "string",
              "string",
              "string"
            ],
            "message": "string",
            "statusCode": "REQUEST_RUNNING_TOO_LONG"
          },
          {
            "extendedErrorDetails": [
              {
                "extendedErrorCode": "OBJECT_NOT_FOUND"
              },
              {
                "extendedErrorCode": "SORT_ENCRYPTED_FIELDS_NOT_SUPPORTED"
              },
              {
                "extendedErrorCode": "SURVEY_MULTIPLE_SCREENS_CANNOT_CONNECT_TO_SAME_DECISION"
              },
              {
                "extendedErrorCode": "SORT_FIELD_MISSING"
              },
              {
                "extendedErrorCode": "VARIABLE_SCALE_NULL"
              },
              {
                "extendedErrorCode": "LOOP_ASSIGNNEXTVALUETO_MISMATCHED_DATATYPE"
              },
              {
                "extendedErrorCode": "SOBJECT_ELEMENT_MISMATCHED_OBJECTTYPE"
              },
              {
                "extendedErrorCode": "CHOICE_USED_MULTIPLE_TIMES_IN_SAME_FIELD"
              },
              {
                "extendedErrorCode": "APEXCALLOUT_INVALID"
              }
            ],
            "fields": [
              "string",
              "string",
              "string",
              "string"
            ],
            "message": "string",
            "statusCode": "SELF_REFERENCE_FROM_TRIGGER"
          },
          {
            "extendedErrorDetails": [
              {
                "extendedErrorCode": "CUSTOMEVENT_PROCESSMETADATAVALUES_MISSING_NAME"
              },
              {
                "extendedErrorCode": "SURVEY_VARIABLE_ACCESS_INVALID"
              },
              {
                "extendedErrorCode": "WAITEVENT_RELATIVEALARM_INVALID_OFFSETUNIT"
              },
              {
                "extendedErrorCode": "FLEXIPAGE_COMPONENT_ATTRIBUTE_TOO_LONG"
              },
              {
                "extendedErrorCode": "SUBFLOW_OUTPUT_MISSING_ASSIGNTOREFERENCE"
              },
              {
                "extendedErrorCode": "FLOW_STAGE_ORDER_OUT_OF_RANGE"
              }
            ],
            "fields": [
              "string",
              "string",
              "string",
              "string",
              "string",
              "string",
              "string",
              "string",
              "string",
              "string"
            ],
            "message": "string",
            "statusCode": "FILTERED_LOOKUP_LIMIT_EXCEEDED"
          },
          {
            "extendedErrorDetails": [
              {
                "extendedErrorCode": "DATATYPE_INVALID"
              }
            ],
            "fields": [
              "string",
              "string",
              "string",
              "string",
              "string"
            ],
            "message": "string",
            "statusCode": "TERRITORY_REALIGN_IN_PROGRESS"
          }
        ],
        "success": true,
        "targetObjectId": "string",
        "workitemId": "string"
      },
      {
        "actions": [
          {
            "commentsRequired": true,
            "label": "string",
            "name": "string",
            "nextOwnerRequired": false,
            "versionRequired": false
          },
          {
            "commentsRequired": true,
            "label": "string",
            "name": "string",
            "nextOwnerRequired": true,
            "versionRequired": true
          },
          {
            "commentsRequired": true,
            "label": "string",
            "name": "string",
            "nextOwnerRequired": true,
            "versionRequired": false
          },
          {
            "commentsRequired": false,
            "label": "string",
            "name": "string",
            "nextOwnerRequired": false,
            "versionRequired": true
          },
          {
            "commentsRequired": true,
            "label": "string",
            "name": "string",
            "nextOwnerRequired": true,
            "versionRequired": true
          },
          {
            "commentsRequired": false,
            "label": "string",
            "name": "string",
            "nextOwnerRequired": true,
            "versionRequired": true
          },
          {
            "commentsRequired": false,
            "label": "string",
            "name": "string",
            "nextOwnerRequired": false,
            "versionRequired": true
          },
          {
            "commentsRequired": false,
            "label": "string",
            "name": "string",
            "nextOwnerRequired": true,
            "versionRequired": false
          }
        ],
        "errors": [
          {
            "extendedErrorDetails": [
              {
                "extendedErrorCode": "SCREEN_PAUSEDTEXT_NOT_SHOWN_WHEN_ALLOWPAUSE_IS_FALSE"
              },
              {
                "extendedErrorCode": "RECORDFILTER_NON_PRIMITIVE"
              },
              {
                "extendedErrorCode": "TYPE_MAPPING_NOT_SUPPORTED"
              },
              {
                "extendedErrorCode": "WAITEVENT_MISSING"
              },
              {
                "extendedErrorCode": "OBJECT_CANNOT_BE_QUERIED"
              },
              {
                "extendedErrorCode": "FLOW_NAME_USED_IN_OTHER_CLIENT"
              },
              {
                "extendedErrorCode": "PROCESSTYPE_COMPONENTTYPE_NOT_SUPPORTED"
              },
              {
                "extendedErrorCode": "CONDITION_REFERENCED_ELEMENT_NOT_FOUND"
              },
              {
                "extendedErrorCode": "SCREENFIELD_EXTENSION_OUTPUT_ATTRIBUTE_INVALID"
              },
              {
                "extendedErrorCode": "CONDITION_OPERATOR_INCOMPATIBLE"
              }
            ],
            "fields": [
              "string",
              "string",
              "string",
              "string",
              "string",
              "string",
              "string"
            ],
            "message": "string",
            "statusCode": "ENVIRONMENT_HUB_MEMBERSHIP_ERROR_JOINING_HUB"
          },
          {
            "extendedErrorDetails": [
              {
                "extendedErrorCode": "SORT_GEOLOCATION_FIELDS_NOT_SUPPORTED"
              },
              {
                "extendedErrorCode": "RECORDUPDATE_MISSING_FILTERS"
              },
              {
                "extendedErrorCode": "OUTPUTPARAM_MISMATCHED_WITH_COLLECTION_VARIABLE"
              },
              {
                "extendedErrorCode": "CONDITION_BUILDER_UNSUPPORTED_FLOW_VARIABLE"
              },
              {
                "extendedErrorCode": "SORT_ORDER_MISSING"
              },
              {
                "extendedErrorCode": "ASSIGNMENTITEM_INVALID_REFERENCE"
              },
              {
                "extendedErrorCode": "RULE_MISSING_CONDITION"
              }
            ],
            "fields": [
              "string",
              "string"
            ],
            "message": "string",
            "statusCode": "MAX_FORMULAS_PER_RULE_EXCEEDED"
          }
        ],
        "success": false,
        "targetObjectId": "string",
        "workitemId": "string"
      },
      {
        "actions": [
          {
            "commentsRequired": true,
            "label": "string",
            "name": "string",
            "nextOwnerRequired": false,
            "versionRequired": false
          },
          {
            "commentsRequired": true,
            "label": "string",
            "name": "string",
            "nextOwnerRequired": true,
            "versionRequired": false
          },
          {
            "commentsRequired": false,
            "label": "string",
            "name": "string",
            "nextOwnerRequired": false,
            "versionRequired": true
          },
          {
            "commentsRequired": true,
            "label": "string",
            "name": "string",
            "nextOwnerRequired": false,
            "versionRequired": true
          },
          {
            "commentsRequired": false,
            "label": "string",
            "name": "string",
            "nextOwnerRequired": false,
            "versionRequired": false
          },
          {
            "commentsRequired": true,
            "label": "string",
            "name": "string",
            "nextOwnerRequired": false,
            "versionRequired": true
          },
          {
            "commentsRequired": false,
            "label": "string",
            "name": "string",
            "nextOwnerRequired": true,
            "versionRequired": true
          },
          {
            "commentsRequired": false,
            "label": "string",
            "name": "string",
            "nextOwnerRequired": true,
            "versionRequired": true
          },
          {
            "commentsRequired": true,
            "label": "string",
            "name": "string",
            "nextOwnerRequired": false,
            "versionRequired": false
          },
          {
            "commentsRequired": false,
            "label": "string",
            "name": "string",
            "nextOwnerRequired": true,
            "versionRequired": false
          }
        ],
        "errors": [
          {
            "extendedErrorDetails": [
              {
                "extendedErrorCode": "SCREENRULE_ATTRIBUTE_NOT_SUPPORTED_FOR_SCREENFIELD"
              },
              {
                "extendedErrorCode": "APEXCALLOUT_NOT_FOUND"
              },
              {
                "extendedErrorCode": "SCREENFIELD_USERINPUT_NOT_SUPPORTED_FOR_CHOICETYPE"
              },
              {
                "extendedErrorCode": "SCREENFIELD_OUTPUTS_NOT_SUPPORTED"
              },
              {
                "extendedErrorCode": "SCREENFIELD_OUTPUTS_NOT_SUPPORTED"
              },
              {
                "extendedErrorCode": "WORKFLOW_MISSING_PROCESSMETADATAVALUES"
              },
              {
                "extendedErrorCode": "SUBFLOW_MISSING_NAME"
              },
              {
                "extendedErrorCode": "OBJECT_TYPE_DOES_NOT_EXIST"
              }
            ],
            "fields": [
              "string"
            ],
            "message": "string",
            "statusCode": "PAL_INVALID_FLEXIPAGE_ID"
          },
          {
            "extendedErrorDetails": [
              {
                "extendedErrorCode": "SCREENRULE_ACTION_INVALID_VALUE"
              },
              {
                "extendedErrorCode": "FLOW_INTERVIEW_LIMIT_EXCEEDED"
              },
              {
                "extendedErrorCode": "TRIGGER_TYPE_ELEMENT_NOT_SUPPORTED"
              },
              {
                "extendedErrorCode": "SUBFLOW_REFERENCES_MASTERFLOW"
              },
              {
                "extendedErrorCode": "SCREENFIELD_TYPE_NOT_SUPPORTED"
              },
              {
                "extendedErrorCode": "FLOW_INCLUDES_STEP"
              },
              {
                "extendedErrorCode": "FIELD_INVALID_VALUE"
              },
              {
                "extendedErrorCode": "VISIBILITY_RULE_EXCEEDS_CONDITION_LIMIT"
              },
              {
                "extendedErrorCode": "SCREENFIELD_EXTENSION_INPUT_ATTRIBUTE_INVALID"
              },
              {
                "extendedErrorCode": "SURVEY_MULTIPLE_SCREENS_CANNOT_CONNECT_TO_SAME_DECISION"
              }
            ],
            "fields": [
              "string",
              "string",
              "string",
              "string",
              "string",
              "string",
              "string",
              "string",
              "string",
              "string"
            ],
            "message": "string",
            "statusCode": "MAXIMUM_DASHBOARD_COMPONENTS_EXCEEDED"
          },
          {
            "extendedErrorDetails": [
              {
                "extendedErrorCode": "EXTERNAL_OBJECT_FIELDS_NOT_SUPPORTED"
              },
              {
                "extendedErrorCode": "TRIGGER_TYPE_NOT_ALLOWED_FOR_SUBFLOW"
              }
            ],
            "fields": [
              "string",
              "string",
              "string",
              "string"
            ],
            "message": "string",
            "statusCode": "XCLEAN_DJ_MATCH_UNKNOWN_ERROR"
          },
          {
            "extendedErrorDetails": [
              {
                "extendedErrorCode": "SUBFLOW_INPUT_MISMATCHED_COLLECTIONTYPES"
              },
              {
                "extendedErrorCode": "AUTOLAUNCHED_SUBFLOW_INCOMPATIBLE_FLOWTYPE"
              },
              {
                "extendedErrorCode": "ASSIGNMENTITEM_INVALID_MERGE_FIELD"
              },
              {
                "extendedErrorCode": "VARIABLE_FIELD_REQUIRED_FOR_DATATYPE"
              },
              {
                "extendedErrorCode": "ACTIONCALL_MISSING_REQUIRED_PARAM"
              }
            ],
            "fields": [
              "string",
              "string",
              "string",
              "string",
              "string"
            ],
            "message": "string",
            "statusCode": "DELETE_OPERATION_TOO_LARGE"
          },
          {
            "extendedErrorDetails": [
              {
                "extendedErrorCode": "APEXCALLOUT_MISSING_CLASSNAME"
              },
              {
                "extendedErrorCode": "FLOW_INTERVIEW_RANGE_VALIDATION"
              }
            ],
            "fields": [
              "string",
              "string",
              "string",
              "string",
              "string",
              "string",
              "string",
              "string"
            ],
            "message": "string",
            "statusCode": "SHARE_NEEDED_FOR_CHILD_OWNER"
          },
          {
            "extendedErrorDetails": [
              {
                "extendedErrorCode": "ASSIGNMENTITEM_INVALID_COLLECTION"
              },
              {
                "extendedErrorCode": "FLEXIPAGE_COMPONENT_MAX_LIMIT_EXCEPTION"
              },
              {
                "extendedErrorCode": "APEXCALLOUT_MISSING_CLASSNAME"
              },
              {
                "extendedErrorCode": "AUTOLAUNCHED_CHOICE_NOT_SUPPORTED"
              },
              {
                "extendedErrorCode": "ACTIONCALL_DUPLICATE_INPUT_PARAM"
              },
              {
                "extendedErrorCode": "OBJECTTYPE_INVALID"
              },
              {
                "extendedErrorCode": "FLEXIPAGE_COMPONENT_ATTRIBUTE_GENERIC_EXCEPTION"
              }
            ],
            "fields": [
              "string",
              "string",
              "string",
              "string",
              "string",
              "string",
              "string"
            ],
            "message": "string",
            "statusCode": "APEX_DATA_ACCESS_RESTRICTION"
          }
        ],
        "success": false,
        "targetObjectId": "string",
        "workitemId": "string"
      },
      {
        "actions": [
          {
            "commentsRequired": false,
            "label": "string",
            "name": "string",
            "nextOwnerRequired": false,
            "versionRequired": false
          },
          {
            "commentsRequired": true,
            "label": "string",
            "name": "string",
            "nextOwnerRequired": true,
            "versionRequired": true
          },
          {
            "commentsRequired": true,
            "label": "string",
            "name": "string",
            "nextOwnerRequired": true,
            "versionRequired": true
          }
        ],
        "errors": [
          {
            "extendedErrorDetails": [
              {
                "extendedErrorCode": "RECORDFILTER_INVALID_OPERATOR"
              },
              {
                "extendedErrorCode": "ELEMENT_INVALID_REFERENCE"
              },
              {
                "extendedErrorCode": "ACTIONCALL_DUPLICATE_OUTPUT_PARAM"
              },
              {
                "extendedErrorCode": "FIELDASSIGNMENT_INVALID_DATATYPE"
              },
              {
                "extendedErrorCode": "RECORDFILTER_NON_PRIMITIVE"
              },
              {
                "extendedErrorCode": "FLEXIPAGE_COMPONENT_ATTRIBUTE_TOO_LONG"
              },
              {
                "extendedErrorCode": "SUBFLOW_DESKTOP_DESIGNER_FLOWS_NOT_SUPPORTED"
              },
              {
                "extendedErrorCode": "SUBFLOW_INPUT_MISSING_NAME"
              },
              {
                "extendedErrorCode": "RECORDFILTER_INVALID_DATATYPE"
              }
            ],
            "fields": [
              "string",
              "string",
              "string",
              "string",
              "string",
              "string",
              "string"
            ],
            "message": "string",
            "statusCode": "INVALID_LINEITEM_CLONE_STATE"
          },
          {
            "extendedErrorDetails": [
              {
                "extendedErrorCode": "ASSIGNMENTITEM_ELEMENT_MISSING_DATATYPE"
              },
              {
                "extendedErrorCode": "APEXCALLOUT_INPUT_DUPLICATE"
              },
              {
                "extendedErrorCode": "SORT_LIMIT_INVALID"
              },
              {
                "extendedErrorCode": "WAITEVENT_DUPLICATE_INPUT_PARAM"
              },
              {
                "extendedErrorCode": "SUBFLOW_INPUT_VARIABLE_NO_INPUT_ACCESS"
              },
              {
                "extendedErrorCode": "APEXCALLOUT_INPUT_INCOMPATIBLE_DATATYPE"
              },
              {
                "extendedErrorCode": "PROCESSTYPE_NOT_SUPPORTED"
              }
            ],
            "fields": [
              "string",
              "string",
              "string",
              "string",
              "string",
              "string",
              "string",
              "string",
              "string",
              "string"
            ],
            "message": "string",
            "statusCode": "MATCH_OPERATION_MISSING_RULE_ERROR"
          },
          {
            "extendedErrorDetails": [
              {
                "extendedErrorCode": "FLOW_ELEMENT_SCALE_LESS_THAN_ZERO"
              },
              {
                "extendedErrorCode": "FLOW_ELEMENT_SCALE_LESS_THAN_ZERO"
              }
            ],
            "fields": [
              "string",
              "string",
              "string",
              "string",
              "string",
              "string",
              "string",
              "string"
            ],
            "message": "string",
            "statusCode": "PA_URI_SYNTAX_EXCEPTION"
          }
        ],
        "success": false,
        "targetObjectId": "string",
        "workitemId": "string"
      },
      {
        "actions": [
          {
            "commentsRequired": true,
            "label": "string",
            "name": "string",
            "nextOwnerRequired": false,
            "versionRequired": true
          }
        ],
        "errors": [
          {
            "extendedErrorDetails": [
              {
                "extendedErrorCode": "FLEXIPAGE_PICKLIST_INVALID_VALUE_EXCEPTION"
              },
              {
                "extendedErrorCode": "SCREENRULE_ACTION_MISSING_FIELDREFERENCE"
              },
              {
                "extendedErrorCode": "EX_AUTOLAUNCHED_SUBFLOW_INCOMPATIBLE_FLOWTYPE"
              },
              {
                "extendedErrorCode": "VARIABLE_FIELD_REQUIRED_FOR_DATATYPE"
              },
              {
                "extendedErrorCode": "SCREENRULE_ACTION_MISSING_ATTRIBUTE"
              },
              {
                "extendedErrorCode": "SURVEY_START_ELEMENT_INVALID"
              },
              {
                "extendedErrorCode": "SCREENCOMPONENT_CONTAINS_VISIBILITY_RULE"
              }
            ],
            "fields": [
              "string"
            ],
            "message": "string",
            "statusCode": "MAX_RULE_ENTRIES_EXCEEDED"
          },
          {
            "extendedErrorDetails": [
              {
                "extendedErrorCode": "SUBFLOW_PROCESS_TYPE_INCOMPATIBLE"
              },
              {
                "extendedErrorCode": "ELEMENT_MISSING_LABEL"
              },
              {
                "extendedErrorCode": "CUSTOMEVENT_PROCESSMETADATAVALUES_MORE_THAN_ONE_NAME"
              }
            ],
            "fields": [
              "string",
              "string",
              "string",
              "string",
              "string"
            ],
            "message": "string",
            "statusCode": "MATCH_OPERATION_UNKNOWN_RULE_ERROR"
          },
          {
            "extendedErrorDetails": [
              {
                "extendedErrorCode": "SUBFLOW_INPUT_REFERENCES_FIELD_ON_SOBJECT_VARIABLE"
              },
              {
                "extendedErrorCode": "SORT_FIELD_MISSING"
              }
            ],
            "fields": [
              "string",
              "string",
              "string",
              "string"
            ],
            "message": "string",
            "statusCode": "REQUIRE_RUNAS_USER"
          }
        ],
        "success": false,
        "targetObjectId": "string",
        "workitemId": "string"
      }
    ]
  }
}