{
  "actions": [
    {
      "name": "postExecuteAnonymous",
      "protocol": "REST",
      "method": "POST",
      "entitypath": "{base_path}/{version}/executeAnonymous?{query}",
      "requestSchema": "schema.json",
      "responseSchema": "schema.json",
      "timeout": 0,
      "sendEmpty": false,
      "requestDatatype": "JSON",
      "responseDatatype": "JSON",
      "headers": {},
      "responseObjects": [
        {
          "type": "default",
          "key": "",
          "mockFile": "mockdatafiles/postExecuteAnonymous-default.json"
        }
      ]
    },
    {
      "name": "postRunTests",
      "protocol": "REST",
      "method": "POST",
      "entitypath": "{base_path}/{version}/runTests?{query}",
      "requestSchema": "schema.json",
      "responseSchema": "schema.json",
      "timeout": 0,
      "sendEmpty": false,
      "requestDatatype": "JSON",
      "responseDatatype": "JSON",
      "headers": {},
      "responseObjects": [
        {
          "type": "default",
          "key": "",
          "mockFile": "mockdatafiles/postRunTests-default.json"
        }
      ]
    },
    {
      "name": "postRunTestsAsynchronous",
      "protocol": "REST",
      "method": "POST",
      "entitypath": "{base_path}/{version}/runTestsAsynchronous?{query}",
      "requestSchema": "schema.json",
      "responseSchema": "schema.json",
      "timeout": 0,
      "sendEmpty": false,
      "requestDatatype": "JSON",
      "responseDatatype": "JSON",
      "headers": {},
      "responseObjects": [
        {
          "type": "default",
          "key": "",
          "mockFile": "mockdatafiles/postRunTestsAsynchronous-default.json"
        }
      ]
    }
  ]
}